<?xml version="1.0" encoding="utf-8"?>
<!-- Generator: Adobe Illustrator 24.0.1, SVG Export Plug-In . SVG Version: 6.00 Build 0)  -->
<svg version="1.1" id="Layer_1" xmlns="http://www.w3.org/2000/svg" xmlns:xlink="http://www.w3.org/1999/xlink" x="0px" y="0px"
	 viewBox="0 0 182.2 55.5" style="enable-background:new 0 0 182.2 55.5;" xml:space="preserve">
<style type="text/css">
	.st0{fill:#FFFFFF;}
</style>
<g>
	<path class="st0" d="M20.5,43.3C20.4,43.4,20.5,43.4,20.5,43.3L20.5,43.3z"/>
	<path class="st0" d="M1.7,50.7c0,0.1,0.1,0.2,0.2,0.3C2,50.8,1.9,50.7,1.7,50.7z"/>
	<path class="st0" d="M0.2,45c0,0,0,0.1,0.1,0.1C0.3,45,0.3,44.9,0.2,45z"/>
	<path class="st0" d="M0.1,45.2C0,45.2,0,45.3,0.1,45.2L0.1,45.2z"/>
	<path class="st0" d="M1.2,50.4c0,0.1,0.1,0.2,0.1,0.2C1.3,50.5,1.4,50.3,1.2,50.4z"/>
	<path class="st0" d="M1.2,50C1.3,50,1.3,50,1.2,50C1.3,49.9,1.2,49.9,1.2,50z"/>
	<path class="st0" d="M19.4,29.7c0,0.1,0.2,0.1,0.2,0.2C19.6,29.7,19.5,29.7,19.4,29.7z"/>
	<path class="st0" d="M0.1,45.2C0,45.3,0.1,45.3,0.1,45.2L0.1,45.2z"/>
	<path class="st0" d="M22.1,46.7c0,0,0,0.1,0.1,0.1C22.2,46.7,22.2,46.7,22.1,46.7z"/>
	<path class="st0" d="M29,44.7C29,44.7,29,44.7,29,44.7C29,44.7,29,44.7,29,44.7L29,44.7z"/>
	<path class="st0" d="M21.9,46.2C21.9,46.2,21.9,46.2,21.9,46.2C22,46.2,22,46.2,21.9,46.2z"/>
	<path class="st0" d="M19.4,35.7C19.3,35.7,19.4,35.7,19.4,35.7L19.4,35.7z"/>
	<path class="st0" d="M2.8,52c0.1,0,0,0.1,0.1,0.1C3,52,2.9,51.9,2.8,52z"/>
	<path class="st0" d="M19.4,34.7c0,0,0,0.1,0,0.3C19.5,35,19.5,34.7,19.4,34.7z"/>
	<path class="st0" d="M2.6,52.2c0.2-0.1,0.1,0.1,0.2,0.1c0.1-0.1-0.1-0.2-0.1-0.3C2.7,52,2.6,51.9,2.6,52.2z"/>
	<path class="st0" d="M2.6,51.8c-0.1-0.2-0.2-0.3-0.3-0.3C2.3,51.7,2.4,51.8,2.6,51.8z"/>
	<path class="st0" d="M2.2,52.4c0,0.1,0.1,0.2,0.2,0.2C2.4,52.4,2.3,52.4,2.2,52.4z"/>
	<path class="st0" d="M32.7,24.4C32.6,24.4,32.6,24.4,32.7,24.4c0-0.1,0-0.4,0.1-0.4c0.1-1.7,0.8-3.3,1.1-4.8
		c0.3-0.3,0.4-0.9,0.6-1.3c-0.2-0.3,0-0.4,0.1-0.6c-0.1-0.2,0-0.2,0-0.3c0-0.2-0.1-0.2-0.1-0.2c0.3-0.2,0-0.5,0.3-0.7
		c-0.2,0-0.1-0.2-0.2-0.3c-0.7-0.2-0.9,0.2-1.3,0.4c-0.5,0.6-0.8,1.4-1.3,2.1c0.1,0.2-0.1,0.3-0.2,0.5c-0.4,1.1-0.7,2.3-0.9,3.6
		c0,0.3-0.2,0.6-0.3,0.9c-0.1,0.7-0.2,1.4-0.3,2.1c-0.1,0.5-0.3,1.1-0.4,1.7c-0.1,0.8-0.1,1.7-0.4,2.5c0,0.3,0.1,0.7-0.2,1
		c-0.1,0.1,0,0.1,0,0.2c0,0,0,0-0.1,0c0.2,0.7-0.1,0.9-0.1,1.5c-0.1,0-0.2,0-0.2,0.1c0.1,0.1,0.2,0,0.2,0.1c0,0.2-0.1,0.1-0.1,0.3
		c0.1,0,0.1,0,0.1,0.1C29,32.8,29,32.8,29,32.8c-0.2,0,0.1,0.2,0,0.3c-0.1,0-0.1,0-0.2,0c-0.1,0.8-0.2,1.8-0.3,2.7
		c-0.1,0-0.1,0.1-0.2,0.1c0,0.1,0.1,0.1,0.1,0.3h-0.1c-0.1,0.1,0,0.1,0,0.2c-0.2,0.3-0.1,0.7-0.3,1c-0.1,1.4-0.7,2.6-1,3.9
		c-0.6,0.7-0.6,1.9-1.3,2.6c-0.5,0.1-0.4,0.7-0.8,0.9c-0.2-0.2-0.2-0.7-0.5-0.9c0.1,0,0.1-0.1,0.1-0.1c-0.5-0.7-0.3-1.6-0.9-2.2
		c-0.1-0.8-0.3-1.6-0.5-2.3c0.2-0.9-0.1-1.5-0.1-2.3c-0.2,0-0.2-0.1-0.3-0.1c0.1-0.1,0.1,0,0.2,0c0.3-1.1-0.4-2.7,0-4
		c-0.1,0-0.1,0-0.1,0c0-0.1,0.1,0,0.1-0.1c-0.3-0.7,0.2-1.7,0-2.3c0.1-0.1,0.1,0,0.1,0c-0.1-0.6,0.2-0.9,0-1.5
		c0.3-0.4-0.2-0.9,0.2-1.2c-0.1,0-0.1-0.1-0.1-0.2c0.4-0.5-0.1-1.5,0.3-1.9c0-0.3,0.1-0.6,0-0.7c0.1,0,0.1,0,0.1,0
		c0.1-0.3,0.1-0.5,0.3-0.8c0-0.2-0.1-0.4-0.2-0.5c0.1,0,0.1-0.1,0.1-0.1c0.1-0.2-0.1-0.2-0.1-0.3c0.6-0.3,0.3-1,0.7-1.5
		c-0.1-0.7,0.1-0.9,0-1.5c0.1,0,0.1,0,0.1,0c-0.2-0.8,0.3-1.2,0.1-1.9c0.2-0.1,0.2-0.7,0.2-1c0.1,0,0.2,0.1,0.2,0
		c-0.1-0.1-0.2-0.1-0.2-0.3c0.1,0,0.1,0.1,0.2,0.1c0-0.9,0.3-1.4,0.1-2.1c0.6-0.7,0.3-1.9,0.6-2.7c-0.1-0.4,0.1-1-0.1-1.3
		c0.2-0.5,0.1-0.9-0.2-1.4c-0.1,0-0.3,0-0.3,0c0-0.1,0-0.2,0-0.2c-0.5-0.3-0.8-0.7-1.3-0.7c-0.2,0-0.4,0.1-0.7,0.1
		c-0.2,0-0.7,0-1.1,0.2c0,0.2-0.2,0.2-0.2,0.5c-1.2,0.8-1.6,2.5-2.4,3.8c0,0.5-0.5,1.1-0.5,1.8c-0.1,0-0.2,0-0.3,0.1
		c0.1,0.6-0.4,0.8-0.3,1.3c-0.1-0.1-0.1-0.1-0.1,0c-0.7,2.4-1.7,5-2.4,7.4c0.1,0,0.1,0,0.1,0.2c-0.1,0-0.1,0-0.2,0
		c0.1,0.3-0.2,0.5,0,0.6c-0.2,0-0.1,0.3-0.2,0.5c0,0,0.1-0.1,0.1,0c-0.2,0,0,0.3-0.2,0.3c0-0.1,0-0.2,0-0.3c-0.3,0.2,0,0.6-0.2,0.9
		c0,0,0,0-0.1,0c0.1,0.3-0.1,0.4,0,0.6c-0.1-0.1-0.1,0-0.2,0c-0.2,0.4-0.2,1-0.5,1.4c0.1,0.2,0.1,0.4-0.1,0.5c0,0.5-0.1,0.7-0.3,1.2
		c-0.5,1-0.6,2.4-1,3.3c-0.2,0.3-0.1,1.1-0.5,1c-0.1,0.5,0,0.8-0.3,1.2c0.2,0,0,0.3-0.1,0.3c0,0-0.1,0.2,0,0.3
		c-0.2,0.2-0.2,0.2-0.2,0.5c-0.2,0.6-0.4,1-0.4,1.7c0,0,0,0-0.1,0c0,0.3,0,0.8-0.2,0.8c0.1,0.4-0.1,0.4-0.1,1h-0.1
		c0,0.3-0.1,0.4,0,0.6c-0.1,0-0.1,0-0.2,0c0,0.4-0.3,0.8-0.2,1.1c-0.4,0.5-0.4,1.3-0.7,2H9.7C9.8,44,9.6,44,9.6,44.2
		c-0.2,0,0-0.2-0.2-0.2c0.1,0.2-0.1,0.3-0.1,0.5c-0.1,0,0-0.3-0.2-0.3c0.2,0.4-0.1,0.4,0,0.7c-0.2,0-0.2,0.1-0.2,0.3c0,0,0,0-0.1,0
		c0,0.1,0,0.2,0,0.3c0.1,0,0.1,0.1,0,0.2c0,0,0,0.1,0,0.1c-0.1,0,0-0.1-0.1-0.1c-0.1,0.2-0.1,0.3,0,0.3c-0.2,0,0,0.2,0,0.2
		c-0.1,0.1-0.2,0.2-0.3,0.1c0,0.1,0.1,0.1,0.1,0.2c-0.1,0-0.1,0-0.2,0c-0.1,0.9-0.8,1.5-1.1,2.3c-0.1,0-0.1-0.1-0.2,0
		c-0.2,0.6-0.6,1-1.1,1.3c-0.1-0.2-0.4-0.3-0.3-0.7c-0.5-0.9-0.6-1.9-0.9-3c-0.1-0.5-0.2-0.9,0-1.3c0-0.3-0.2-0.5,0-0.6
		c-0.2-0.1-0.1-0.4,0-0.5c0-0.9,0.1-1.6,0-2.4c0.1,0,0.1-0.1,0.1-0.1c-0.1-0.1-0.1-0.3,0.1-0.4c-0.1-0.1-0.1-0.3-0.1-0.4
		c0.1-0.1,0.1-0.2,0.2-0.2c-0.1-0.6,0-1.4,0-1.8c0.2,0.1,0,0.3,0.2,0.4c0-0.4-0.2-0.9,0-1.2c0.1-0.1,0,0.2,0.1,0.2
		c0-0.2,0.1-0.2,0.1-0.3c-0.1-0.2-0.2-0.4-0.2-0.5h0.1c-0.1-0.1,0.1-0.1,0.1-0.2c-0.1-0.1-0.2,0.1-0.2,0c-0.2-0.3,0.2-0.6,0-0.9
		c0.3-0.5,0-1.4,0.3-1.8c0-0.1-0.1-0.1-0.1-0.1c0.2,0,0-0.3,0.2-0.2c0-0.5,0.1-0.8,0-1.4c0.2,0,0.2-0.1,0.2-0.1
		c-0.1-0.6,0.1-0.9,0-1.5h0.1c0-0.2-0.1-0.1-0.1-0.2C5.9,30.8,6,30.8,6,30.8c0.2-1.6,0.1-3.1,0.5-4.1c-0.1,0-0.2,0-0.2,0
		c0-0.2,0.1-0.3,0.1-0.4c0-0.2-0.1-0.3-0.1-0.4c0.4-0.9,0.2-1.5,0.4-2.6c-0.2-0.2,0-0.5,0.1-0.7c-0.2-0.2,0.3-0.5,0-0.7
		c0.1,0,0.1,0,0.1-0.1C7,21.7,6.8,21.4,7,21.4c-0.1-0.3,0-0.5,0.2-0.8c0.1-0.7,0.3-1.8,0.4-2.5c0.1,0,0.1,0,0.1,0
		c-0.1-0.5,0.2-0.9,0.1-1.3c0.1,0,0.1,0,0.1,0c0.2-1,0.1-2.1,0.5-2.8c-0.1-0.1-0.1-0.4-0.1-0.4c0.1,0,0.2,0,0.2,0
		c0-0.2,0.1-0.2,0.1-0.3c-0.1-0.5,0.1-1.1,0.2-1.5c0.2-0.6,0.1-1.4,0.2-2c0-0.1,0.1-0.2,0.1-0.2c0.1-0.1,0-0.2,0-0.2
		c0.1-0.2,0.2-0.3,0.2-0.5c0.1-0.8,0.3-1.4,0.3-2.1c0-0.1-0.1-0.2-0.1-0.3c0-0.3,0.2-0.9,0.1-1.3c0-0.1,0.1-0.1,0.1-0.2
		c-0.1,0,0-0.2-0.1-0.4c0.1-0.8-0.1-1.5-0.1-2.2C9.1,2,9,1.7,8.8,1.2C8.5,1,8.2,0.9,7.8,0.7c-0.1,0-0.2,0-0.3,0
		C7.4,0.4,7.3,0.4,7.3,0.4c-1.2-0.5-2.7-0.4-4-0.1c0,0.1-0.2,0.1-0.3,0.1c0,0,0,0.1,0,0.2C2.1,1,1.1,1.9,0.5,2.9
		c0,0.6,0.2,1.3,0.4,1.7c0.2-0.1,0.3,0.1,0.5,0.1c1-0.1,2.1-0.2,3-0.7C4.2,5.4,4,6.9,3.7,7.9c0.1,0,0.1,0,0.1,0.1
		c-0.4,1.8-0.7,3.9-1,5.9H2.7c0.2,0.6-0.2,1.3-0.1,1.8c-0.1,0-0.1,0-0.2,0c0.2,0.8,0,1.7-0.3,2.7c0.1,0.9-0.2,2.4-0.4,3.5
		c0,0.2,0.1,0.5,0,0.8c0,0-0.1,0-0.1,0.1c-0.1,0.5,0.1,1.1-0.2,1.6c0.1,0.2,0.1,0.7-0.1,0.8C1.3,26.4,1,27.9,1,29c0,0,0,0-0.1,0
		c0,0.1,0.1,0.1,0.1,0.2c-0.2,1.2-0.2,3-0.5,3.9c0.1,0,0.1,0.1,0.1,0.2c-0.2,1.1-0.1,2.8-0.4,3.8c0.1,0,0.1,0,0.1,0.1
		c0,1.2-0.2,3.1-0.1,4.4c0,0-0.1-0.1-0.1,0c0,0,0.1,0,0.1,0.1c-0.1,0.5,0.2,1-0.1,1.5c0.1,0,0.2,0,0.3,0c0.1,0.5,0.2,0.8,0.2,1.3
		c-0.1,0,0-0.1-0.1-0.1c-0.2,0.2-0.1,0.3,0,0.5c0.1,0.1-0.1,0-0.1,0.2C0.6,45.9,0.7,47,1,47.9c-0.1,0-0.1,0-0.1,0.1
		c0.2,0,0.2,0.2,0.3,0.4c-0.1,0-0.1,0-0.2,0c0,0.3,0.2,0.4,0.3,0.6c-0.1,0.3,0.1,0.7,0.1,1c0.2,0,0.1-0.2,0.2-0.2
		C1.7,50,1.8,50.4,2,50.7c0-0.1,0-0.1,0.1-0.1c0.1,0.4,0.4,0.8,0.7,1.1c-0.1,0-0.1,0-0.1,0.1c0.1-0.1,0,0.1,0.1,0.1
		c0-0.1,0.1-0.1,0.1-0.1c0,0.1,0.2,0.2,0.2,0.4c0.2,0,0.3-0.1,0.3,0c0,0.1,0.1,0.2,0.1,0.3c0.9,0.2,1.4,0.8,2.4,0.8v0.1
		c0.2,0,0.4,0,0.4-0.1c0.2,0.1,0.4-0.2,0.6,0c0-0.2,0.2-0.1,0.3-0.2c1.2-0.1,1.8-0.8,2.5-1.4c0.1,0,0.1,0,0.1,0
		c0.7-0.8,1.5-1.7,1.7-2.8c0.1,0,0.2,0,0.2,0c0.5-1.1,0.9-1.9,1.1-3.1c0.2,0,0.2-0.2,0.2-0.2c0.1-0.9,0.6-1.8,0.6-2.8
		c0.2-0.1,0.1-0.4,0.1-0.6c0.1,0.2,0.3,0,0.2-0.1c0.1-0.3,0.1-0.9,0.3-1.2c-0.2-0.4,0.2-1.1,0.1-1.6c0.2-0.1,0.4-0.7,0.3-0.9
		c0-0.1,0.1-0.2,0.1-0.2c0-0.9,0.4-1.6,0.5-2.6c0.1,0,0.2,0,0.2,0c-0.1-0.3,0.1-0.8,0.3-1c0-0.3-0.1-0.7,0.2-1
		c-0.2-0.2,0-0.5,0.1-0.6c-0.1-0.4,0.3-0.8,0.3-1.2c0-0.1-0.1-0.1-0.1-0.2c0.1-0.1,0.1,0,0.2,0c0.1-0.7,0.2-1.1,0.4-1.5
		c0-0.1,0-0.2-0.1-0.2c0.2-0.2,0.1-0.8,0.1-1c0.1,0,0,0.1,0.2,0.1c0-0.1,0-0.2,0-0.3c-0.1-0.1-0.2,0.1-0.2,0c0.2-0.3,0.3-0.6,0.3-1
		c0.1,0,0.1,0.1,0.2,0.1c-0.1-0.4,0.1-0.4,0-0.8c0.1,0,0.1,0.1,0.2,0.1c0-0.4,0-0.5,0-0.8c0.1,0,0.1,0.1,0.2,0.1
		c0.2-0.3,0.2-0.7,0.4-0.9c0-0.1-0.1-0.1-0.1-0.2c0.1-0.1,0.2-0.2,0.2-0.2c0-0.2-0.2-0.5,0-0.6c0.1,0,0.1,0.1,0.1,0.1
		c0.1-0.3,0.4-0.5,0.3-0.8c-0.1,0-0.1-0.1-0.1-0.1c0.2-0.1,0.1-0.4,0.1-0.5c0-0.1,0.2-0.1,0.2-0.2c0-0.1,0-0.3,0-0.3
		c0.1-0.1,0.3-0.2,0.3-0.3c0.1-0.1,0-0.2,0-0.2c0.1-0.4,0.5-0.9,0.3-1.3c0.5-0.3,0.2-0.8,0.5-1.1c0-0.2-0.2-0.3-0.1-0.3
		c0.3,0,0.2,0.2,0.3,0.2c0.2-0.3-0.1-0.6,0.2-0.8c0.1,0,0.1,0.3,0.2,0.3c0.1,0,0-0.2,0.1-0.2c0,0.9,0,1.7-0.3,2.4
		c0.1,0,0.1,0,0.1,0.1c0.1,0.7-0.1,1.4-0.2,2.1c0,0.4,0,0.8,0,1.2c-0.1,0-0.2,0.1-0.2,0.2c0.3,0.1,0,0.5,0.2,0.6
		c-0.1,0.1-0.1,0.1-0.1,0.4c0.1,0,0.1-0.1,0.1,0c0.1,0.2-0.2,0-0.2,0.2c0.1,0.3-0.1,0.9,0,1.2c0-0.2,0.1-0.1,0.1,0
		c-0.1,0-0.1,0.1-0.2,0.1c0.1,0.2-0.1,0.4,0,0.7c0-0.1,0-0.2,0.1-0.2c-0.1,0.2,0,0.5-0.2,0.3c0.1,0.3,0.3,0.9,0,1.2
		c0.1,0.4,0,0.7,0,1c0-0.1,0.1,0,0,0c0,0.4,0.1,0.7-0.1,1.4c0.2,0.1,0,0.2-0.1,0.1c0.1,0.1,0,0.2,0,0.4c0.2,0-0.1-0.2,0.2-0.2
		c0.1,0.3,0,0.3,0,0.6c-0.1,0-0.2-0.1-0.2,0s0.2,0.4,0,0.5c0,0.1,0.1-0.2,0.1,0c0,0.7-0.1,0.9,0,1.5c0-0.1,0-0.1,0-0.1
		c0,0.3,0.1,0.9,0,1.3c0.3,0.3,0,0.6,0.1,1c0.1,0,0.1-0.1,0.1,0c-0.1,0.2-0.3,0.6-0.1,0.9c0-0.1,0.1-0.2,0.1-0.1s0,0.2-0.1,0.1
		c0,0,0,0,0,0.1c0.1,0.1,0.1,0.1,0.1,0.1c0-0.1,0.2,0,0,0c0,0.2-0.1,0.4,0.1,0.5c-0.1,0.1-0.2,0.3-0.1,0.4c0-0.2,0.1-0.3,0.2-0.3
		c0.1,0.2-0.1,0.2-0.1,0.4c0.1-0.1,0.1,0,0.1,0.1L20,39c-0.2,0.1,0.1,0.2-0.1,0.3c0.3-0.1-0.1,0.2,0.1,0.3c0.1-0.1,0.1-0.3,0.1-0.4
		c0.1,0.1,0.2,0.6,0,0.8c0.2-0.1,0.2-0.1,0.3,0c0,0.1-0.1,0-0.2,0.1c0,0.3,0.1,0.4,0.1,0.6c0.2,0.1,0-0.2,0.2-0.1
		c0,0.2,0.1,0.2,0,0.3c-0.1,0,0-0.1-0.1-0.1c0,0.4,0.2,0.6,0.2,1c0.3,0.3,0.4,0.9,0.4,1.2c0.2,0.7,0.6,1.1,0.6,1.8
		c0.3,0,0.3,0.3,0.4,0.5c0,0-0.1,0-0.1,0.1c0,0,0.1-0.1,0.2,0c0,0.4,0.3,0.3,0.3,0.7c0.1,0.1,0.3,0.1,0.3,0.2
		c0.1,0.5,0.5,0.9,0.9,1.2c0.2-0.1,0.4,0,0.4,0.2c0.3-0.1,0.5,0.1,0.8,0.1c0.5-0.2,0.8-0.1,1.3-0.1c0.4-0.2,0.7-0.4,1.1-0.5
		c0.7-0.8,1.4-1.7,1.8-2.6c0-0.5,0.5-0.8,0.3-1.1c0.1,0,0.2,0,0.2,0c0.2-0.7,0.2-1.5,0.4-2h-0.1c0.1-0.1,0.2-0.1,0.2-0.2
		c0-0.1-0.1-0.1-0.1-0.1c0.1,0,0.1,0,0.1-0.1c0.3-0.7,0.3-1.4,0.4-2.1c-0.1-0.3-0.1-0.6,0.2-0.6c0.4-2.7,0.8-4.1,1.1-6.4h-0.1
		c0.1-0.1,0.3-0.2,0.3-0.4c-0.2-0.1-0.2,0.2-0.2,0.1c0.1-0.3,0.1-0.5,0.1-0.9c0.1-0.1,0.1,0,0.1,0c0.3-0.9,0.2-1.5,0.1-2.3
		c0.4-0.1,0.1-0.7,0.1-0.8c0.1,0,0.1,0,0.1,0c-0.1-0.1,0.3-0.4,0-0.6c0.4-0.3-0.2-0.8,0.2-1c0-0.2-0.1-0.5,0.1-0.7
		C32.3,25.2,32.7,24.8,32.7,24.4z M23.5,20.7C23.4,20.7,23.5,20.5,23.5,20.7L23.5,20.7z M3.4,29.5C3.4,29.4,3.5,29.5,3.4,29.5
		L3.4,29.5z M4.4,20.2C4.4,20.2,4.4,20.2,4.4,20.2C4.4,20.2,4.4,20.2,4.4,20.2z M16.7,27.6C16.7,27.6,16.7,27.6,16.7,27.6
		C16.7,27.6,16.7,27.6,16.7,27.6z M17,26.2c0.1,0.2,0.1,0.3,0.1,0.5C16.8,26.7,17,26.3,17,26.2z M17.8,24.7L17.8,24.7
		C18,24.5,18,24.8,17.8,24.7z M18,24.9c0-0.1,0-0.2,0-0.3C18.2,24.7,18.1,24.7,18,24.9z M18.5,23.2c-0.1,0.1,0,0.2,0,0.3
		c-0.1,0-0.2,0-0.2,0c0-0.1-0.1-0.4,0-0.4C18.4,22.9,18.5,23,18.5,23.2c0-0.1,0-0.2,0-0.2C18.6,22.9,18.6,23,18.5,23.2
		C18.5,23.2,18.5,23.2,18.5,23.2z M19.1,21.2C19,21.2,19,21.2,19,21C19.2,21,19.1,21.2,19.1,21.2z M19.4,19.7c0-0.2,0.1-0.2,0.2-0.2
		C19.6,19.5,19.6,19.7,19.4,19.7z M19.8,18.5C19.8,18.4,19.9,18.4,19.8,18.5L19.8,18.5z M19.9,19.2c0-0.1,0-0.2,0-0.2
		C20,19.2,20.1,19.3,19.9,19.2z M20,18.8c0-0.1-0.2-0.1-0.2-0.2c0.1,0,0.1-0.1,0.1-0.1C20.1,18.5,20,18.7,20,18.8z M21.1,31.2
		c0-0.1,0.1-0.1,0.1,0C21.3,31.2,21.1,31.2,21.1,31.2z M21.3,26.3C21.2,26.2,21.4,26.2,21.3,26.3L21.3,26.3z M22.5,33.7
		C22.4,33.7,22.4,33.5,22.5,33.7L22.5,33.7z M30.2,37.8c0-0.2,0-0.3,0-0.4C30.3,37.4,30.2,37.8,30.2,37.8z"/>
	<path class="st0" d="M12.7,33.5C12.6,33.4,12.7,33.7,12.7,33.5L12.7,33.5z"/>
	<path class="st0" d="M49.7,29.7C49.7,29.7,49.8,29.7,49.7,29.7C49.7,29.7,49.6,29.7,49.7,29.7z"/>
	<path class="st0" d="M50.9,25.7c-0.4,0.7-0.8,1.3-1.2,2c-0.1,0-0.2,0-0.2,0c-0.1,0.4-0.3,0.7-0.6,0.9c-0.3,1-1,1.2-1.3,2.1
		c-0.9,1-1.5,2.1-2.4,3c-0.1,0-0.2,0-0.2,0c0,0.1-0.1,0.2-0.1,0.3c-1.8,1.4-3.3,3.6-6.7,2.9c-0.5-0.3-0.9-0.7-1.3-1
		c-0.3-0.6-0.8-1.2-0.8-1.9c1.2-0.5,1.9-1.5,3-2.2c0.2-0.4,0.7-0.7,0.9-1.1c0.3,0,0.3-0.3,0.6-0.3c0.1-0.3,0.5-0.4,0.6-0.7
		c0.3-0.1,0.6-0.4,0.8-0.7c1.7-1.4,3.2-2.9,4.4-4.8c0.1-0.4-0.1-0.5,0-0.7c-0.2-0.1-0.2-0.3-0.2-0.5c-0.2-0.4-0.8-0.7-1.3-1
		c-0.3-0.2-0.4-0.4-0.6-0.5c-0.1-0.1-0.1,0-0.2,0c-0.1-0.1-0.1-0.2-0.2-0.2c-2-0.4-3.8,0.3-5,1c-2.3,1.7-4,3.9-5.4,6.4
		c-0.1,0.4-0.2,0.6-0.4,0.9c-0.2,1.2-0.5,2.4-0.4,4c0.1,0.9,0.4,1.7,0.7,2.4c0.4,0.6,0.9,1.1,1.3,1.7c0.7,0.5,1.5,0.9,2.4,1.2
		c0.1-0.1,0.2,0,0.2-0.1c0.1,0.1,0.3,0.1,0.4,0.2c0-0.2,0.3-0.1,0.3-0.1c0.5,0.1,0.9,0,1.3,0.1c0.3-0.2,0.8-0.2,1.1-0.5
		c0.1,0,0.1,0.1,0.2,0.1c2.2-0.7,4.1-2,5.4-3.7c1-0.8,1.7-1.9,2.6-2.8c0.1-0.3,0.2-0.7,0.5-0.8c-0.1-0.2,0.4-0.4,0.2-0.5
		c-0.1,0-0.1,0-0.2,0.1c0.2-0.4,0.4-0.8,0.5-1.1c0.1-0.9,0.7-1.4,0.8-2.2c0.1-0.2,0.4-0.5,0.4-0.9c0.2,0,0.2-0.1,0.2-0.3
		c0.4-0.5,0.8-1.1,0.7-1.8C51.4,24.8,51,25.3,50.9,25.7L50.9,25.7z M39.4,25.4c1.5-1.1,3.3-2.7,5.6-2.4c0.2,0.1,0.3,0.4,0.3,0.7
		c-0.1,0.2-0.2,0.2-0.2,0.5c-1.4,1.9-3.1,3.6-5.1,4.6c-0.2,0.3-0.7,0.4-0.9,0.7c-1,0.5-2,1.1-2.9,1.7C36.3,28.7,38.1,27.2,39.4,25.4
		z M48.3,32C48.3,31.9,48.4,31.9,48.3,32L48.3,32z M48.7,31.4C48.7,31.7,48.6,31.4,48.7,31.4c0.1-0.1,0.2-0.2,0.2-0.3
		C49,31.2,48.8,31.4,48.7,31.4z M49,31c0,0,0.1-0.1,0.1-0.1C49,31,49,31,49,31z"/>
	<path class="st0" d="M82.6,9.8c-0.3,0.1-0.5,0.4-0.7,0.8C82.2,10.4,82.4,10.2,82.6,9.8z"/>
	<path class="st0" d="M83.3,8.9C83.3,8.9,83.3,8.9,83.3,8.9L83.3,8.9C83.3,9,83.3,9,83.3,8.9L83.3,8.9z"/>
	<path class="st0" d="M85.6,6.3C85.7,6.2,85.6,6.2,85.6,6.3L85.6,6.3z"/>
	<path class="st0" d="M79.8,13.7L79.8,13.7C79.7,13.8,79.7,13.8,79.8,13.7C79.8,13.8,79.8,13.7,79.8,13.7z"/>
	<path class="st0" d="M85.6,6.3C85.7,6.3,85.7,6.2,85.6,6.3L85.6,6.3z"/>
	<path class="st0" d="M85.6,6.4c-0.2,0-0.5,0.2-0.4,0.4C85.3,6.7,85.5,6.7,85.6,6.4z"/>
	<path class="st0" d="M79.4,14.2c0.1-0.1,0.1-0.2,0-0.3C79.3,13.9,79.3,14.2,79.4,14.2z"/>
	<path class="st0" d="M79.5,14.3C79.4,14.3,79.5,14.4,79.5,14.3L79.5,14.3z"/>
	<path class="st0" d="M78.2,15.9L78.2,15.9C78.3,16,78.3,15.7,78.2,15.9z"/>
	<path class="st0" d="M77.9,16.2C77.9,16.2,77.8,16.2,77.9,16.2C77.9,16.2,78,16.2,77.9,16.2z"/>
	<path class="st0" d="M79.6,14.2c0.1-0.1,0.1-0.1,0.1-0.1C79.6,13.8,79.6,13.9,79.6,14.2z"/>
	<path class="st0" d="M79.6,14.3c0-0.2,0-0.1,0-0.2C79.5,14.2,79.5,14.3,79.6,14.3z"/>
	<path class="st0" d="M79.8,14.1C79.7,14.1,79.7,14.1,79.8,14.1L79.8,14.1z"/>
	<path class="st0" d="M80.8,12.4c0.1,0,0.1-0.1,0.2-0.1c0.1-0.2,0.2-0.3,0.2-0.5C81,12.1,80.9,12.2,80.8,12.4z"/>
	<path class="st0" d="M77.8,44.7c0.2,0,0.2,0,0.2-0.1C77.9,44.5,77.9,44.7,77.8,44.7z"/>
	<path class="st0" d="M86.3,52.7c0.1-0.1,0.3-0.1,0.3-0.3C86.4,52.4,86.3,52.5,86.3,52.7z"/>
	<path class="st0" d="M72.4,53.7C72.4,53.7,72.4,53.7,72.4,53.7C72.4,53.7,72.4,53.7,72.4,53.7C72.4,53.7,72.4,53.7,72.4,53.7z"/>
	<path class="st0" d="M85.1,22.5C85,22.5,85,22.5,85.1,22.5c-0.1,0.1-0.1,0.1-0.1,0.2C85,22.7,85,22.6,85.1,22.5z"/>
	<path class="st0" d="M85.6,53.3c0-0.1,0.4-0.2,0.3-0.4C85.8,53,85.5,53.2,85.6,53.3z"/>
	<path class="st0" d="M72.5,53.8c0.1,0,0.1,0,0.2,0c-0.1,0-0.2,0-0.2-0.1C72.5,53.8,72.5,53.8,72.5,53.8z"/>
	<path class="st0" d="M82.4,10.3c0,0-0.1,0.1-0.1,0.1C82.3,10.4,82.4,10.4,82.4,10.3z"/>
	<path class="st0" d="M80.7,12.7C80.6,12.7,80.6,12.7,80.7,12.7C80.6,12.7,80.6,12.7,80.7,12.7z"/>
	<path class="st0" d="M82.2,10.6c0,0,0.1-0.1,0.1-0.1C82.3,10.5,82.2,10.5,82.2,10.6z"/>
	<path class="st0" d="M75.5,21c0-0.1,0.3-0.2,0.1-0.3C75.6,20.8,75.5,20.9,75.5,21C75.5,21,75.5,21,75.5,21C75.5,21,75.5,21,75.5,21
		z"/>
	<path class="st0" d="M77.1,18.2C77.1,18.2,77.2,18.2,77.1,18.2C77.1,18.2,77.1,18.2,77.1,18.2z"/>
	<path class="st0" d="M77.2,18.2C77.2,18.2,77.1,18.2,77.2,18.2c-0.1,0-0.3,0.2-0.3,0.3C77.1,18.4,77.1,18.2,77.2,18.2z"/>
	<path class="st0" d="M77.2,16.7C77.2,16.7,77.2,16.7,77.2,16.7C77.3,16.7,77.3,16.7,77.2,16.7z"/>
	<path class="st0" d="M77.7,16.8L77.7,16.8C77.6,16.7,77.6,16.9,77.7,16.8z"/>
	<path class="st0" d="M77.3,32.2C77.2,32.2,77.2,32.2,77.3,32.2C77.1,32.3,77.4,32.2,77.3,32.2z"/>
	<path class="st0" d="M75.7,20.2c0.1,0,0.1-0.2,0-0.1V20.2z"/>
	<path class="st0" d="M76.8,18.8L76.8,18.8c-0.1-0.1-0.1-0.1-0.2-0.2c0,0.1,0,0.1,0,0.2C76.7,18.8,76.8,18.8,76.8,18.8z"/>
	<path class="st0" d="M90.6,19.4c0,0,0.1,0,0.1-0.1c-0.1,0-0.1-0.1-0.1,0V19.4z"/>
	<path class="st0" d="M89.4,13.2C89.3,12.9,89.2,13.2,89.4,13.2L89.4,13.2z"/>
	<path class="st0" d="M78.9,29.7c0.1,0,0.1-0.1,0.1-0.1S78.9,29.5,78.9,29.7z"/>
	<path class="st0" d="M78.1,30.7C78,30.7,78,30.7,78.1,30.7C78.1,30.8,78.1,30.8,78.1,30.7z"/>
	<path class="st0" d="M138,37.7c0.2-0.1,0.3-0.2,0.4-0.4C138.2,37.4,138.1,37.5,138,37.7z"/>
	<path class="st0" d="M137.7,38.2c0.1-0.1,0.2-0.2,0.3-0.3C137.9,37.8,137.8,37.9,137.7,38.2z"/>
	<path class="st0" d="M137.6,38.2C137.7,38.2,137.7,38.2,137.6,38.2L137.6,38.2z"/>
	<path class="st0" d="M137.4,38.3C137.4,38.3,137.6,38.2,137.4,38.3C137.4,38.2,137.4,38.3,137.4,38.3z"/>
	<path class="st0" d="M182.1,8c-0.2,0.1-0.2,0.1-0.5,0.1c-1.3,1.4-3.2,2.5-5,3.1c-0.3,0.1-0.5,0.1-0.7,0.2c-0.3,0-0.5,0.1-0.6,0.2
		c-0.6,0.1-1.2,0.1-1.8,0.4c0-0.1-0.1-0.1-0.1-0.1c-3,0.7-6.1,0.6-8.7,0.8c-0.1-0.1-0.2-0.1-0.3-0.1c-0.4,0.2-0.7,0-1.1,0.1v-0.1
		c-0.2,0.3-0.6,0.1-0.8,0v0.1c-0.9-0.1-1.8,0-2.6-0.2c-0.7,0.2-1.4-0.3-2.1-0.1c-0.1-0.1-0.2-0.1-0.3-0.2c0.1-0.3,0-0.6,0.3-0.8
		c0-0.8,0.2-1.4,0.5-1.8c-0.1-0.2,0.1-0.6,0.2-0.9c-0.1,0-0.1-0.1-0.1-0.1c0.2-0.6-0.2-1-0.2-1.4c-0.8-0.5-1.3-1.6-2.4-1.6
		c-0.2-0.1-0.2-0.1-0.4-0.2c0,0.1-0.4,0.3-0.4,0c-0.7,0.4-0.8,1.3-1.2,1.9c0,0.2,0.1,0.1,0.1,0.2c-0.2,0-0.2,0.1-0.2,0.2
		c-0.2,1.3-0.6,2.7-0.9,4.2c-0.2-0.1-0.8,0-1.2-0.2c-1,0.2-1.7-0.1-2.9-0.1c-0.1,0-0.1-0.1-0.1-0.1c-0.7,0.1-1.4-0.1-2.2-0.1
		c-0.5,0-1,0.1-1.5,0c-0.1,0.1-0.7-0.1-1,0.1c0-0.1,0-0.1,0-0.1c-0.2,0.1-0.3-0.1-0.4,0c0.1,0.1-0.3,0.2-0.4,0c0,0,0,0.1,0,0.1
		c-0.4,0-1,0.1-1.3,0.1c-0.1,0.1-0.2,0-0.3,0c-0.2,0.1-0.5,0.2-0.8,0.2c-2.3,0.3-5.2,0.9-6.7,2.6c-0.5,0.3-0.9,0.7-1.2,1.3
		c0.9-0.2,1.4-1,2.2-1.4c1-0.6,2.4-1.3,3.7-1.3c0.2,0,0.4,0,0.7,0c0.1,0,0.1-0.1,0.2-0.1c0.1-0.1,0.8,0,1.3,0c0.2,0,0.3,0.1,0.5,0.1
		c0.3,0,0.5-0.1,0.7-0.1c0.5,0,1,0.2,1.5,0.1c0.1,0.1,0.5,0.1,0.6,0.1c0.5,0,1,0.1,1.3,0c0,0.1,0,0.1,0,0.1c1.2-0.1,2.2,0.2,3.6,0.2
		c0.3,0,0.5,0,0.7-0.1c0.1,0.1,0.3,0.1,0.3,0.2c0.1,0,0.1-0.1,0.3-0.1c-0.1,0.2,0.4,0,0.6,0c0.1,0.2,0.8,0.3,1,0.1
		c0.1,0.1,0.3,0.1,0.3,0.2c0-0.1,0.3-0.1,0.3,0c-0.2,0.5-0.3,1.4-0.5,1.9c-0.2,1.4-0.6,3.2-1,4.6c-0.1,0.2,0,0.4,0,0.5
		c-0.1,0.3-0.1,0.5-0.3,0.8c0,0.2,0.1,0.1,0.1,0.2c-0.1,0.4-0.3,0.7-0.4,1.1c-0.6,0.4-0.7,1.2-1.3,1.7c0,0.3-0.4,0.4-0.4,0.7
		c-0.3,0.2-0.4,0.6-0.8,0.8c-0.1,0.4-0.6,0.5-0.6,0.9c-0.2,0-0.1-0.1-0.2,0c-0.6,0.8-1.5,1.5-2.2,2.2h-0.1c-0.6,0.8-1.5,1.4-2.3,2.1
		c0.1,0,0,0.1,0,0.1c-0.6,0.3-1.1,1-1.7,1.3c-0.4-1-0.5-2.4-1.1-3.2c0.1,0,0.2,0,0.3,0c0-0.3-0.2-0.5-0.3-0.8
		c-0.1-0.6-0.4-1.2-0.6-1.7c0-0.1-0.1-0.2,0-0.3c-0.5-1-0.3-2.1-0.5-3.1c0.1-0.1,0.1-0.2,0.2-0.2c-0.1,0-0.1-0.1-0.1-0.2
		c0.3-0.9,0.7-1.9,1-2.8c0.5-0.2,0.5-1,1.1-1.2c0.1-0.4,0.4-0.7,0.7-1c0.1,0,0.1-0.1,0.3-0.1c0.1,0.1,0.2,0.2,0.2,0.3
		c0,1.8-0.7,2.9-1.1,4.5c0.1,0.1,0.2,0.3,0.1,0.4c0.3-0.1,0.5,0.2,0.7,0.3c0.3,0,0.5,0.3,0.6,0.3c0.3,0,0.7,0,1,0.1
		c0.6-0.1,1.3-0.5,1.3-1.3c0.4-0.3,0.2-0.9,0.7-1c0.1-0.3,0.1-0.8,0.4-1c0.1-0.6,0-1.1,0-1.9c-0.7-2-3.3-2.7-5.4-3.1
		c-0.7,0.2-1.2,0.7-1.8,1c-1.2,1.4-2.4,3.2-2.6,5.2c-0.1,0.1-0.2,0.2-0.2,0.2c-0.8,0.7-1.8,1.1-2.8,1.7c-0.2,0-0.3,0.2-0.6,0.3
		c0.2-1.6,0.6-3.2-0.3-4.4c-0.6-0.4-1.3-0.5-2-0.8c-0.1,0-0.1,0-0.2,0c-1.5,0.6-2,2-3,3c-0.1,0.4-0.3,0.7-0.5,0.9
		c-0.2,0.9-0.6,1.8,0,2.6c0.8,1,2.2,1.4,3.8,1c-0.3,0.9-0.8,1.7-1,2.6c-0.1,0-0.1,0.1-0.2,0.1c0,0.1-0.1,0.1-0.1,0.3
		c-1.9,2.9-4,5.6-6.9,7.5c-0.4,0.1-0.9,0.5-1.4,0.4c-0.6-0.7-1-1.5-1-2.6c0-0.7,0.3-1.6,0.3-2.4c0.2-0.1,0.2-0.3,0.2-0.5
		c0.1,0,0.2-0.1,0.3-0.1c-0.1-0.2,0-0.3,0.1-0.3c-0.1-0.4,0.2-0.4,0.2-0.8c0.2-0.1,0.2-0.3,0.2-0.5c0.3-0.4,0.6-1.3,0.9-1.9
		c0.5-0.9,0.9-2,1.7-2.7c0-0.4,0.4-0.4,0.3-0.7c0.1,0,0.1-0.1,0.2-0.1c-0.1-0.2,0.2-0.1,0.2-0.4c0.6-0.2,0.6-0.8,1.1-1
		c0.1-0.1,0.1-0.3,0.1-0.3c0.6-0.4,0.8-1.1,1.3-1.6c0-0.1,0.1-0.2,0.1-0.3c0-1.3-1.4-1.9-2.4-2.3c-0.6,0.5-1.1,1.1-1.5,1.7
		c-0.3,0.2-0.6,0.4-0.6,0.7c-0.1,0-0.2,0-0.2,0c-0.2,0.7-0.9,0.8-1,1.5c-0.3,0.1-0.2,0.4-0.5,0.4c-0.1,0.2-0.2,0.3-0.3,0.5
		c-0.9,1.2-2.4,1.8-3.7,2.6c-0.3,0-0.4,0.1-0.6,0.3c0.2-1.6,0.6-3.2-0.3-4.4c-0.6-0.4-1.3-0.5-2-0.8c-0.1,0-0.1,0-0.2,0
		c-1.5,0.6-2,2-3,3c-0.1,0.4-0.3,0.7-0.5,0.9c-0.2,0.9-0.6,1.8,0,2.6c0.8,1,2.2,1.4,3.8,1c-0.3,0.9-0.8,1.7-1,2.6
		c-0.1,0-0.1,0.1-0.2,0.1c0,0.1-0.1,0.1-0.1,0.3c-1.9,2.9-4,5.6-6.9,7.5c-0.4,0.1-0.9,0.5-1.4,0.4c-0.6-0.7-1-1.5-1-2.6
		c0-0.7,0.3-1.6,0.3-2.4c0.2-0.1,0.2-0.3,0.2-0.5c0.1,0,0.2-0.1,0.3-0.1c-0.1-0.2,0-0.3,0.1-0.3c-0.1-0.4,0.2-0.4,0.2-0.8
		c0.2-0.1,0.2-0.3,0.2-0.5c0.3-0.4,0.6-1.3,0.9-1.9c0.5-0.9,0.9-2,1.7-2.7c0-0.4,0.4-0.4,0.3-0.7c0.1,0,0.1-0.1,0.2-0.1
		c-0.1-0.2,0.2-0.1,0.2-0.4c0.6-0.2,0.6-0.8,1.1-1c0.1-0.1,0.1-0.3,0.1-0.3c0.6-0.4,0.8-1.1,1.3-1.6c0-0.1,0.1-0.2,0.1-0.3
		c0-1.3-1.4-1.9-2.4-2.3c-0.6,0.5-1.1,1.1-1.5,1.7c-0.3,0.2-0.6,0.4-0.6,0.7c-0.1,0-0.2,0-0.2,0c-0.2,0.7-0.9,0.8-1,1.5
		c-0.3,0.1-0.2,0.4-0.5,0.4c-0.1,0.2-0.2,0.4-0.4,0.7c-0.3,0.1-0.3,0.6-0.7,0.6c0,0.1,0,0.2-0.1,0.3c-0.6,0.3-1,1-1.7,1.3
		c-0.3,0.4-0.7,0.6-1,0.9c0-0.1-0.1-0.1-0.1-0.1c-0.2,0.6-1.1,0.7-1.4,1.3c0-0.1-0.1-0.1-0.1-0.1c-0.3,0.7-1,1-1.5,1.5
		c-0.6-0.2-0.8,0.2-1.1,0.5c-0.3-1-0.9-2.1-1.9-2.6c-1.7-2.9-6.4-2.6-9.3-1.6c0.1-0.2,0.2-0.3,0.2-0.5c0.1,0.1,0.1,0,0.2,0
		c0.2-0.6,0.9-0.9,0.9-1.5c0.3,0,0.2-0.2,0.3-0.2c-0.1-0.7,0.5-0.8,0.5-1.3c0.5-0.3,0.7-0.8,0.9-1.3c0.1-0.1,0.6-0.8,0.4-0.8
		c0.1-0.1,0.2-0.2,0.3-0.4c0.2-0.3,0.3-0.6,0.6-0.6c0.3-0.4,0.3-0.9,0.7-1.1c0-0.2,0.1-0.2,0-0.4c0.1-0.1,0.2-0.3,0.4-0.4
		c0-1,0.8-1.6,1-2.5c0.4-0.2,0.3-0.8,0.7-0.9c0-0.1,0-0.2,0-0.2c0.6-0.5,0.9-1.2,1.2-2c0.2,0,0.1-0.3,0.3-0.3c0.1-0.1,0-0.1,0-0.2
		c0.3-0.4,0.5-0.9,0.5-1.3c0.5-0.5,0.6-1.4,0.9-1.9c-0.1-0.1-0.1-0.1-0.1-0.1c0.5-0.5,0.5-1.6,0.8-2.3c0.1-0.1,0-0.1,0-0.2h0.1
		c-0.1-0.3,0.2-0.8,0.1-1.3c0-0.4,0.1-0.9,0-1.4c-0.1-0.3-0.2-0.4-0.1-0.6c-0.4-0.6-0.3-1.4-0.9-1.7c-0.1-0.1-0.2-0.1-0.3-0.1
		c-0.1-0.2-0.1-0.4-0.3-0.5C94,2,93.7,2,93.4,1.9c0-0.1-0.1-0.3-0.3-0.3c-0.4-0.1-1,0-1.4-0.1c0.2,0.2-0.1,0.2-0.3,0.2
		C91.3,1.8,91.3,2,91.2,2c-1.8,0.2-2.8,1.3-3.9,2c0,0.2,0.1,0.5-0.2,0.5c-0.1-0.1,0-0.2-0.1-0.2c-0.1,0.1,0,0.4-0.1,0.4
		s-0.1-0.1-0.1-0.1c-0.2,0-0.1,0.2-0.3,0.2c0.1,0,0,0.3,0,0.3c-0.1,0-0.1,0-0.2,0c0.1,0.1,0,0.1,0,0.3c0.3-0.2,0.3-0.4,0.6-0.5
		c-0.1,0.1,0,0.2-0.1,0.4c-0.1-0.2-0.4,0.1-0.4,0.4C86.2,5.9,86,6,85.9,6.1c0-0.1,0.1-0.1,0.1-0.2c-0.1,0-0.3,0.1-0.3,0.3
		c0.1,0,0.1,0,0.1,0c0,0.1,0,0.1,0,0.2c-0.4,0.3-0.7,0.8-1.1,1.2c0-0.3,0.2-0.3,0.3-0.5c0,0-0.1,0-0.1,0c-0.1,0-0.1,0-0.1,0
		c0-0.1,0.1-0.2,0.2-0.2c0,0-0.1,0.1-0.1,0.2C85,7,85.1,6.9,85.1,6.8c0,0-0.1,0-0.1,0.1c0.1-0.1,0.1-0.2,0.1-0.3
		c-0.2,0-0.2,0.1-0.3,0c0,0.1,0.1,0.1,0.1,0.2c-0.3,0.4-0.7,0.7-1,1.1c0,0,0,0-0.1,0c0.1,0.2-0.2,0.3-0.1,0.5c0.1,0,0.1-0.1,0.1-0.1
		C83.9,8.2,84,7.9,84.1,8C84,8.2,84,8.3,83.8,8.3c0,0.1,0,0.3,0,0.4c-0.3,0.1-0.3,0.6-0.7,0.7c0,0.5-0.6,0.9-0.8,1.2
		c0-0.1-0.1,0.1-0.1,0c0,0,0-0.1,0-0.1c-0.3,0.3-0.6,0.6-0.8,0.9c0-0.2-0.2,0.1-0.3,0.2c0,0.1,0,0.2,0,0.2c0.2-0.2,0.3-0.4,0.5-0.6
		c0.1,0,0.1,0,0.1,0.1c-0.3,0.3-0.4,0.8-0.7,1c-0.1,0.1-0.2,0.2-0.3,0.3c0,0,0.1,0,0.1,0c-0.1,0-0.1,0.3-0.3,0.3
		c0,0,0.1-0.1,0.1-0.2c-0.1,0.1-0.1,0.1-0.2,0.2c0,0.2-0.1,0.2,0,0.3c0.3,0.1,0.1-0.3,0.4-0.3c-0.3,0.9-0.9,1.5-1.3,2.3
		c-0.1-0.1-0.1-0.1-0.2,0c0,0.1,0.1,0.1,0.1,0.2c-0.1,0.1-0.2,0.2-0.3,0.3c-0.2,0.3-0.4,0.9-0.8,1c0.4-0.4,0.6-1.1,1-1.5
		c0-0.3,0.4-0.6,0.4-0.9c0,0.1-0.1,0.1-0.2,0.1c0,0.3-0.1,0.6-0.5,0.5c0,0.7-0.5,1.2-0.9,1.7c-0.1,0.2-0.1,0.2-0.3,0.2
		c0.3,0.4-0.3,0.8-0.3,1.1c0.4-0.2,0.4-0.7,0.7-0.9c0-0.1,0-0.1,0.1-0.1L78.2,17c-0.2,0.3-0.4,0.7-0.6,1c-0.2,0.7-0.7,1.2-1.1,1.8
		c0,0.1-0.1,0.3-0.2,0.3c0-0.1,0.1-0.2,0.2-0.3c0-0.3,0.5-0.6,0.3-0.8c-0.5,0.6-0.8,1.5-1.3,2.1c0-0.1,0-0.1,0-0.1c0,0,0,0,0-0.1
		c0,0,0,0,0,0c-0.2-0.1-0.1,0.1-0.2,0.2c0.1,0,0.1-0.1,0.1,0c-0.1,0-0.1,0.2-0.2,0.2c0,0.1,0,0.2-0.1,0.3c0,0.1,0,0.1-0.1,0.1
		c0-0.1,0.1-0.1,0.1-0.1c0-0.1,0-0.1,0-0.1s-0.2,0.1-0.2,0c0-0.1,0-0.1,0-0.2c0.1,0.1,0.1,0,0.3,0c0-0.1,0-0.2,0-0.2
		C75,21,75,21.2,74.9,21.2c0.2-0.1-0.1-0.2-0.1-0.4c0-0.5,0.3-0.8,0.3-1.4c0.4-0.6,0.3-1.4,0.6-2c0,0-0.1,0.1-0.1,0
		c0.4-1.8,0.4-3.2,1-4.8c0-0.1-0.1-0.1-0.1-0.1c0.1-0.1,0-0.2,0.1-0.4c0-0.5,0.3-1,0.3-1.4H77c0-0.2,0-0.3,0.2-0.3
		c0-0.2-0.2,0-0.2-0.2c0.4-0.7,0.5-1.8,0.5-2.4c0.2,0,0.2-0.1,0.2-0.1c-0.3-0.3,0.1-0.7-0.1-1c0.1,0,0.1,0,0.1-0.1
		c-0.1-0.6-0.3-1.4-0.5-2c-0.7-0.5-1.5-1.5-2.7-1.1c0-0.1-0.1-0.1-0.2-0.1c-0.4,0.2-0.6,0.6-1,0.8c-0.4,1.5-0.4,2.7-0.7,4.3
		c0,0-0.2-0.1-0.2,0c0.1,0.1,0.2,0.1,0.2,0.2c-0.3,0.8-0.3,1.9-0.6,2.9c-0.1-0.2-0.1-0.1-0.2,0c0.1,0.1,0.2,0.1,0.2,0.2
		c-0.2,0.6-0.1,1.7-0.6,2.3c0.1,0,0.2-0.1,0.2,0c0,0.1-0.1,0-0.2,0.1c-0.1,0.2,0.2,0.1,0.1,0.3c0,0.1-0.1,0.1-0.2,0.1
		c0.1,0.1,0.1,0.4-0.1,0.4c0,0.9-0.3,2.2-0.5,3.3c-0.1,0-0.2,0-0.2,0.1c0,0.1,0.1,0,0.1,0.1c-0.1,0.3-0.1,0.8-0.3,1.2
		c-0.2,2-0.7,3.6-1,5.7c0,0,0,0.1-0.1,0.1c0,0.7-0.1,1.5-0.4,2.2c-0.3,2.2-0.8,4.7-1.4,7.1c0,0.1,0,0.1,0,0.3
		c-0.7,2.5-0.9,5.1-1.7,7.4c-0.1,0.7-0.3,1.4-0.7,1.8c0.1,0.1,0,0.2,0,0.4c0.4,0.3,0.5,0.8,0.8,1.2c-0.1-0.1-0.2,0-0.2,0.1
		c0.4,0.6,1.2,0.7,1.9,0.9c0.3-0.1,0.5-0.1,1-0.1c0-0.4,0.5-0.5,0.3-0.8c0.8-0.4,0.6-1.3,0.9-1.7c-0.2-0.4,0.1-0.9,0.2-1.2
		c0-0.3,0.1-1,0.3-0.9c0.2-0.9,0.2-1.7,0.6-2.4c0-0.1-0.1-0.1-0.1-0.1c0.3-0.7,0.4-1.3,0.7-1.9c0.1-0.6,0.2-1.1,0.4-1.4
		c0-0.9,0.6-1.7,0.5-2.4c0.2-0.2,0.4-0.7,0.4-0.9c0.1,0,0.1,0,0.1,0c0.1-0.5,0.2-0.9,0.3-1.3c0.1,0,0.1,0.1,0.1,0.1
		c0.1-0.2-0.1-0.6,0.1-0.6v0.1c0.2-0.9,0.9-1.6,1-2.7c0.1-0.1,0.1-0.3,0.1-0.3c0.1,0,0.2,0,0.3,0c0-0.2-0.1-0.1-0.1-0.2
		c0.4-0.3,0.5-0.7,0.7-1.1c-0.1,0-0.1-0.2-0.1-0.2c0.1,0,0.1-0.1,0.2,0c0.2-0.5,0.3-0.8,0.6-1.1c0.1-0.7,0.3-1.3,0.7-1.7
		c0.2-0.5,0.4-0.9,0.7-1.2c0,0.1-0.2,0.2,0,0.2c0.6-0.7,0.9-1.7,1.3-2.4c-0.1-0.4,0.3-1,0.5-1c0,0.1-0.2,0.2,0,0.3
		c0.2-0.2,0.4-0.5,0.4-0.8h-0.1c0.1,0,0-0.2,0.2-0.2c0,0.1-0.2,0.2,0,0.2c0-0.3,0.1-0.3-0.1-0.4c0.1-0.1,0.1-0.3,0.2-0.3
		c0,0.1,0.1,0.1,0.1,0.1c0.1-0.1,0.2-0.3,0.2-0.2c0.1,0.1,0,0.1,0,0.2c0.3-0.2,0.5-0.9,0.5-1.2c0.3-0.2,0.6-0.6,0.5-0.9
		c0.3-0.3,0.4-0.6,0.6-1c0.4-0.3,0.7-0.8,0.7-1.3c0.1-0.2,0.3-0.1,0.4-0.2c0,0.1,0,0.2,0,0.2c0.2-0.6,0.6-0.8,0.7-1.3
		c0.2,0,0.2,0,0.3,0c0.1-0.7,0.5-0.8,0.8-1.3c0.2,0.1,0.2-0.1,0.3-0.1c-0.1-0.4,0.4-0.3,0.3-0.7c0.1-0.1,0.2-0.1,0.3-0.2
		c0-0.2,0.1-0.3,0.3-0.4c0.5-0.2,0.5-0.9,1-1c0-0.1,0-0.1,0-0.2c0.4,0,0.4-0.3,0.6-0.5c0.1-0.2-0.1-0.1-0.1-0.2
		c0.3-0.1,0.5-0.6,0.9-0.7c0.1-0.4,0.5-0.4,0.5-0.7c0.1-0.1,0.1-0.2,0.1-0.3c0.5,0,0.5-0.4,0.7-0.6c0.1,0,0.2,0,0.3,0
		c0.5-0.6,1.4-0.8,1.9-1.3c0.3-0.1,0.5-0.2,0.7-0.2c0.4,1,0.2,2.5-0.3,3.6c-0.4,2.3-1.8,4.3-2.8,6.4c-0.9,1.2-1.6,2.6-2.4,3.9
		c0,0,0,0-0.1,0c-0.2,0.5-0.7,0.6-0.7,1.2c-0.1,0-0.1,0-0.2,0c0,0.2,0,0.2,0,0.3c-0.2,0-0.4,0.3-0.2,0.5c-0.4,0.2-0.5,0.9-1,1.2
		c0,0.3-0.2,0.6-0.4,0.9c0-0.1-0.1-0.1-0.1,0c0,0.1-0.3,0.6-0.6,0.6c0,0.5-0.2,0.8-0.7,1c0,0.2,0,0.2,0,0.3
		c-0.2,0.1-0.2,0.5-0.5,0.6c-0.1,0.2-0.4,0.5-0.6,0.8c0,0.3-0.1,0.4-0.3,0.5v0.1c-0.1,0-0.2,0.1-0.3,0.1c0.1,0.3-0.2,0.3-0.2,0.6
		c-0.4,0.1-0.3,0.6-0.7,0.7c0,0.1-0.2,0.2,0,0.3c-0.3,0.4-0.8,0.7-0.9,1.2c0,0.1-0.2,0-0.3,0.1c0.1,0.1,0,0.1,0,0.2
		c0.1,0,0.1,0,0.1,0.1c-0.1,0-0.3,0.3-0.3,0.3c-0.1,0.3-0.6,0.4-0.7,0.8c0.1-0.1,0.1,0,0.1,0.1c-0.1-0.1-0.1,0-0.2,0
		c0,0.2,0,0.8-0.4,0.5c0,0.2,0.1,0.1,0.1,0.3c-0.2,0-0.1,0.2-0.1,0.3c-0.1-0.1-0.1,0-0.2,0c0,0.1,0.1,0.1,0.1,0.2
		c-0.1,0-0.1,0-0.3,0c0,0.2,0.1,0.2,0.1,0.3c-0.2,0.1-0.2,0.1-0.4,0.2c0,0.1,0,0.2,0,0.3c0.2,0,0.3,0.1,0.3,0.2
		c-0.3,0.2,0.2,0.3,0,0.6c0.2,0.3,0.5,0.1,0.7,0.4c0.2,0,0.4-0.1,0.4,0.2c0.2-0.2,0.1,0,0.3,0c0-0.1-0.1-0.2,0-0.2s0.1,0.1,0.3,0.1
		c0,0.1-0.1,0.1-0.1,0.2c0.2,0.2,0.6,0.2,0.8,0.3c0-0.3,0.1-0.2,0.3-0.2c0-0.2-0.2-0.1-0.2-0.2c0.3-0.1,0.3,0.1,0.5,0.1
		c0-0.1,0-0.2,0.1-0.2c0.1,0.2,0.6,0,0.8,0.1c0.8-0.7,1.6-1.4,2.5-1.9c0.1,0,0.2,0,0.2,0c0.1-0.1,0.1-0.1,0.2-0.1c0-0.1,0-0.1,0-0.1
		c1.3-0.9,3.1-1.3,4.6-2c0.1,0.2,0.2,0,0.3,0c0.1-0.1,0.1,0,0.2,0c2-0.9,3,0.8,3.4,2.2c0,0.3,0.2,0.4,0.2,0.7c-0.1,0-0.1,0-0.1,0.1
		c0.1,0,0.1-0.1,0.1,0c0,0.5,0.3,1,0,1.6c0,0.1,0.1,0,0.1,0.1c0,0-0.1,0.1-0.1,0.1c0,0,0-0.1,0-0.1c0,0,0,0-0.1,0
		c0,0.1-0.2,0.1-0.2,0.3c0,0,0,0,0,0c-0.3,0-0.3,0.3-0.6,0.2c-0.1,0.1,0,0.1,0,0.2c0,0,0.1,0,0.1-0.1c-0.1,0.1-0.1,0.2-0.1,0.3
		c-0.1-0.1-0.1-0.1-0.2-0.1c0,0.2-0.1,0.2-0.3,0.1c0.1-0.1,0.2-0.1,0.2-0.2C91.2,35.5,91.3,36,91,36c0-0.1,0-0.1,0-0.1
		c-0.1,0-0.2,0.1-0.3,0.2c-0.5,0.2-1,0.6-1.5,0.9s-1,0.5-1.5,0.8c-0.9,0.6-1.8,1.3-2.9,1.8c-0.8,0.5-1.5,1-2.3,1.5c0,0,0,0,0,0v0
		c-0.1,0.1-0.3,0.2-0.4,0.3c0.1-0.1,0.1-0.1,0.1-0.2c-0.2,0-0.2,0.1-0.3,0.1c0,0.2,0.1,0.2,0.1,0.3c-0.1,0-0.1,0.1-0.2,0.1
		c0.1-0.1,0.1-0.2,0-0.2c-0.1,0-0.1,0.1-0.1,0.3c-0.1,0.1-0.2,0.2-0.3,0.3c0-0.1,0-0.2-0.1-0.2c0,0.2-0.1,0.2-0.3,0.2
		c0,0.2-0.1,0.2,0,0.3c-0.4,0.3-0.8,0.7-1.3,1c0-0.2,0.1-0.2,0.1-0.3c-0.3,0.1-0.6,0.7-0.8,0.4c0,0.2-0.1,0.5-0.4,0.5
		c0,0,0.1,0.2,0,0.2c-0.3-0.2-0.3,0.3-0.6,0.3c0,0.1,0.1,0.1,0.1,0.2c-0.2,0.1-0.4,0.4-0.6,0.4c0.1-0.1,0.3-0.2,0.3-0.3
		c-0.3,0-0.4,0.5-0.7,0.3c0,0.1,0,0.1,0,0.2c-0.6,0.3-1,0.9-1.7,1.3c0-0.1-0.1-0.1-0.1-0.1c-0.2,0.7-1.1,1-1.4,1.6
		c-0.2-0.1-0.1,0.1-0.2,0.1c0.1,0,0.2,0.2,0,0.3c-0.1-0.1,0.1-0.2-0.1-0.2c0.1,0.2-0.1,0.1-0.2,0.2c-0.1,0.1,0.2,0.2,0,0.3
		c-0.1,0-0.1-0.3-0.2-0.1c0.2,0.3,0,0.8-0.4,0.8c0.1,0.2-0.1,0.4-0.2,0.3c0.1,0.2-0.2,0.3,0,0.4c0-0.1,0-0.1,0.1-0.1
		c0,0.1-0.1,0.2,0,0.3h-0.1c0.2,0.5-0.5,0.6-0.2,1c-0.1-0.1,0-0.1-0.1-0.1c-0.1,0.5-0.1,0.9-0.2,1.4c0.2-0.1,0.2,0,0.2,0.1
		c-0.1,0.2,0,0.5,0.1,0.8c0.1,0,0.3,0,0.3,0.2c0,0,0.1,0,0.1,0c0,0.2,0.3,0,0.3,0.3c0.4,0,0.4,0.3,0.7,0.2c0.1,0.1,0,0.3,0.1,0.3
		c0.3-0.1,0.6,0.5,1,0.3c0.6,0.4,1.5,0.5,2.2,0.4c0,0.1,0.1,0.1,0.1,0.1c0.8,0.1,1.6,0.1,2.4,0.1c0.6,0,0.9-0.4,1.5-0.7
		c0.1,0,0.1,0.1,0.2,0.1c0.3-0.2,0.6-0.2,1-0.3c0.1,0,0-0.2,0.1-0.2c1.1-0.1,1.7-0.9,2.6-1c0.4-0.5,1.2-0.9,1.3-1.5
		c0.4,0.1,0.4-0.3,0.7-0.1c0.2-0.2,0.6-0.4,0.7-0.7c0.7-0.1,1.2-0.6,1.3-1.2c0.1,0,0.1,0,0.1,0c-0.1,0.2,0,0.2-0.1,0.4
		c0.3-0.1,0.2-0.8,0.6-0.7c0.2-0.3,0.3-0.5,0.6-0.6c0,0,0-0.1,0.1-0.1c0,0,0.1,0,0.1,0c0-0.1-0.1,0-0.1,0c0.1-0.1,0.1-0.1,0.2,0
		c0-0.1,0.1-0.2,0.1-0.3c0.1,0,0.1,0,0.1,0c0.1-0.1,0.1-0.2,0.1-0.3c0.2,0,0.6-0.5,0.4-0.7c0.3,0,0.3-0.2,0.5-0.2
		c0.1-0.6,0.6-0.8,0.8-1.3c0.6-0.1,0.4-0.9,1-1c0.3-0.7,0.7-1.3,1-2c0.1,0,0.1,0.1,0.2,0.1c0-0.2-0.1-0.4,0.1-0.3
		c-0.1-0.5,0.4-0.6,0.3-1c0.7-1.4,1.2-3.2,1.5-5.1c0-0.1-0.1-0.1-0.1-0.1c0.3-0.5,0.2-1.5,0.1-1.9c0.4-0.4,0.8-0.7,1.2-1
		c0-0.1,0.1-0.2,0.1-0.2c0.1-0.1,0.1,0,0.1,0c0.1-0.4,0.7-0.6,0.9-0.9c0.1,0,0.2,0,0.2,0c0-0.1,0.1-0.1,0.1-0.3h0.1
		c0.4-0.9,1.4-1.2,1.9-1.9c0.1,0,0.1,0,0.1,0c0.2-0.2,0.5-0.5,0.7-0.8c-0.2,0.4-0.3,0.8-0.5,1.3c-0.2,0.9-0.5,2.1-0.9,2.8
		c0.1,0,0.1,0,0.1,0.1c-0.8,2.5,0.2,5.1,1.7,6.5c0.8,0.2,1.5,0.9,2.5,0.8c0.6-0.1,0.9-0.2,1.4-0.2c0.1,0,0.1-0.2,0.2-0.2
		c0.1,0.1,0.2-0.1,0.3,0c0.2-0.3,0.4-0.5,0.8-0.6c0.7-0.7,1.4-1.3,2.1-2c-0.2-0.1,0.2-0.1,0.1-0.3c1-0.9,2-2,2.7-3
		c-0.1-0.1-0.1-0.2-0.1-0.3c0.3-0.5,0.9-1,0.9-1.7c0.1,0,0.2,0,0.2-0.1c0.1-0.6,0.4-1.2,0.7-1.7c0-0.1,0-0.1,0-0.3
		c0.2-0.3,0.3-1,0.6-1.3c0-0.1-0.1-0.1-0.1-0.1c0.3-0.2,0.2-0.5,0.5-0.7c0-0.8,0.7-0.8,1.3-1.1c0.2-0.5,1-0.5,1.2-1
		c0.6-0.2,0.8-0.8,1.4-1c0-0.1,0.1-0.1,0.1-0.1c-0.2,0.3-0.4,0.6-0.5,0.9c-0.2,0.9-0.5,1.5-0.8,2.2c-0.2,0.9-0.5,2.1-0.9,2.8
		c0.1,0,0.1,0,0.1,0.1c-0.8,2.5,0.2,5.1,1.7,6.5c0.8,0.2,1.5,0.9,2.5,0.8c0.6-0.1,0.9-0.2,1.4-0.2c0.1,0,0.1-0.2,0.2-0.2
		c0.1,0.1,0.2-0.1,0.3,0c0.2-0.3,0.4-0.5,0.8-0.6c0.7-0.7,1.4-1.3,2.1-2c-0.2-0.1,0.2-0.1,0.1-0.3c1-0.9,2-2,2.7-3
		c-0.1-0.1-0.1-0.2-0.1-0.3c0.3-0.5,0.9-1,0.9-1.7c0.1,0,0.2,0,0.2-0.1c0.1-0.6,0.4-1.2,0.7-1.7c0-0.1,0-0.1,0-0.3
		c0.2-0.3,0.3-1,0.6-1.3c0-0.1-0.1-0.1-0.1-0.1c0.3-0.2,0.2-0.5,0.5-0.7c0-0.8,0.7-0.8,1.3-1.1c0.2-0.5,1-0.5,1.2-1
		c0.6-0.2,0.8-0.8,1.4-1c0-0.1,0.1-0.1,0.1-0.2c-0.1,1.2-0.1,2.4,0,3.6c0.1,2.1,1.1,3.7,1.5,5.2c0,0.1,0,0.1,0,0.1
		c0.3,0.5,0.5,1.2,0.6,1.8c0.1,0.2,0.2,0.7,0.3,1c-0.1,0.1,0,0.4,0,0.6c-1.5,1.3-2.6,2.9-4.1,4.2c-0.1,0.4-0.5,0.7-0.8,1
		c0,0.3-0.1,0.5-0.3,0.5c-0.3,0.6-0.5,1.2-1,1.6c-0.1,0.5-0.4,1-0.7,1.4c-0.8,2-1.9,4.6-1.6,7c0.1,0.7,0.5,1.5,0.9,2
		c0,0.2,0.3,0.2,0.3,0.3c0.1,0.1,0.2,0.3,0.5,0.3c0.1,0.2,0,0.2,0.1,0.3c0.6,0.1,0.8,0.4,1.3,0.7c1.3,0,1.8,0.7,3,0.7
		c0.1-0.1,0.2-0.2,0.3-0.2c0.7,0.1,1.1-0.1,1.6-0.3c0.5,0.2,0.7-0.3,1.2-0.3c0.7-0.5,1.4-1,2-1.6c-0.1-0.2,0-0.1,0-0.3
		c0.5-0.2,0.7-0.8,0.9-1.4c0.1,0,0.1-0.3,0.3-0.3c0-0.1-0.1-0.1-0.1-0.2c0.3-0.3,0.3-0.9,0.6-1.4c0.3-1.3,0.6-3.1,0.7-4.4
		c-0.1-0.7-0.1-1.4-0.1-2.1c0,0.1-0.1,0.1,0,0c-0.1-0.9-0.3-2.1-0.4-3.2c-0.3-0.9-0.4-2.1-0.5-2.9c-0.4-0.6-0.4-1.6-0.6-2.5
		c0.5-0.7,1.3-1.2,1.8-1.9c0.3-0.2,0.6-0.5,0.8-0.8c0.3-0.1,0.6-0.3,0.7-0.7c0,0,0.1,0,0.2,0c0.6-0.8,1.3-1.5,2-2.2
		c0-0.1,0-0.1,0-0.2c0.1-0.1,0.1-0.3,0.3-0.3c0.2-0.6,0.7-1.1,1.1-1.5c0.7-1.3,1.6-2.4,2.1-3.7c-0.1,0.2-0.1,0.4-0.2,0.6
		c0,0.3-0.1,0.5-0.1,0.7h0.1c0,0.3-0.2,0.5-0.2,0.7c0,0.1,0,0.2,0,0.3c0,0.3-0.3,0.7-0.3,1c0,1.4-0.5,2.8-0.7,4.4
		c0,0.3-0.3,0.7-0.1,1c-0.2,0.3,0,0.8-0.2,1.2c0,0.9-0.2,2.4-0.3,3.2c0.2,0,0.1,0.3,0,0.3c0.1,0.4,0.1,0.8-0.1,1.1
		c0.2,0.6-0.1,1.5,0,2.1c-0.2,0.8,0.1,2-0.1,2.4c0.2,0.3,0,0.8,0.3,1c-0.2,0.4,0.1,1,0.3,1.3c-0.1,0-0.1,0.2-0.1,0.3
		c0.1,0.4,0.3,0.8,0.4,1.1c0.2,1.1,0.9,1.8,1.7,2.5c0.8,0.2,1.5,0.6,2.4,0.5c0,0,0.4-0.1,0.5-0.1c0.3-0.1,0.7-0.4,1-0.4
		c0.5-0.5,1.1-1,1.4-1.6c-0.1-0.2-0.2-0.3-0.3-0.3c-0.4,1.1-2.5,1.6-3.5,0.8c-0.1-0.5-0.6-1.3-0.3-2c-0.3-0.4,0-0.9-0.3-1.1
		c0.1-0.7-0.2-1.9-0.2-2.6c0-0.1,0-0.3,0-0.5c0.2-0.3-0.1-0.7,0.2-1c0-0.1,0-0.3,0-0.5c0.2-0.4,0.2-1.1,0.3-1.6
		c0-0.1-0.2-0.1-0.2-0.2c0-0.1,0.2-0.1,0.2-0.1c0-0.3,0.2-0.7,0-0.9c0.1,0,0.1-0.2,0.1-0.4c0-0.1,0.1-0.1,0.1-0.2
		c0-0.4,0.3-0.8,0.1-1.2c0.1-0.9,0.2-1.5,0.3-2.3c0.2-0.2,0-0.6,0.2-0.9c-0.1-0.9,0.3-1.4,0.3-2.1c0.3-0.3,0.2-1.1,0.5-1.4
		c-0.2,0,0-0.2-0.1-0.3c0.1,0,0.1,0,0.1,0c0-1.2,0.5-1.6,0.5-2.6c0.2,0,0.1-0.4,0.3-0.4c0.1-0.8,0.3-1.1,0.5-1.7
		c0.1-0.2,0-0.3,0-0.4c0.1,0,0.2-0.1,0.2-0.1c0-0.7,0.2-1.5,0.2-2c0.3-0.2,0.3-0.6,0.3-0.9h0.1c-0.1-0.8,0.4-1.1,0.2-1.8
		c0.2-0.5,0.4-1.1,0.7-1.6c0-0.4,0.1-0.8,0.3-1.1c-0.1-0.2,0-0.4,0.1-0.5c0.1,0,0.1,0,0.2,0c0.5-0.4,1.1,0.2,1.6,0
		c0.3,0.2,0.8,0.1,1.1,0.3c0.4-0.1,0.6,0.1,1.1,0c0.5,0.2,1.2,0,1.8,0.2c0-0.1,0.1-0.1,0.1-0.1c-0.1,0.1,0.1,0.1,0.1,0.1
		c0.1-0.2,0.3-0.1,0.5,0c0.7-0.1,1.7,0,2.5,0.1c0-0.1-0.1-0.2,0-0.2c0.2,0.1,0.6,0,0.9,0.2c0.6-0.2,1.1,0.1,1.6-0.2
		c0.1,0.1,0.6,0.1,0.8,0c0.7,0,1.4,0,2-0.2c0.3,0.1,1-0.1,1.4-0.2c0,0-0.1-0.1,0-0.1c0.2,0.1,0.3,0.1,0.5,0c0,0.1,0.1,0.1,0.1,0.1
		c0.1-0.2,0.3,0,0.4-0.2c0.3,0.2,0.7-0.1,1,0c0.2-0.3,0.6-0.3,0.9-0.3c0.2-0.2,0.9-0.2,1.2-0.5c0.2,0,0.5,0,0.7-0.3
		c0.2,0,0.1-0.1,0.2,0c0-0.1-0.1,0-0.1-0.1c-0.1,0-0.1,0.1-0.1,0c0.1,0,0.1,0,0.1,0c0.1-0.1,0.1,0,0.3,0c0-0.1,0.4-0.1,0.2-0.2
		c0.6-0.2,1-0.5,1.4-0.9c0.2-0.1,0.4-0.3,0.5-0.5c0.1,0.1,0.2-0.1,0.2-0.2c0.8-0.8,1.6-1.9,1.9-3.2C182.1,8.2,182.1,8.2,182.1,8z
		 M74.5,22C74.4,22,74.5,21.9,74.5,22C74.6,21.9,74.5,21.9,74.5,22z M74.5,21.4C74.5,21.4,74.6,21.4,74.5,21.4c0.1-0.1,0-0.1,0-0.1
		C74.5,21.3,74.6,21.3,74.5,21.4C74.6,21.4,74.5,21.4,74.5,21.4z M75.2,21.5c0-0.2,0-0.2,0.1-0.2C75.3,21.4,75.3,21.5,75.2,21.5z
		 M86.8,5.5C86.8,5.3,87,5.5,86.8,5.5L86.8,5.5z M87.5,4.8C87.4,4.8,87.4,4.7,87.5,4.8L87.5,4.8z M88,22.7c0.1,0,0.1,0,0.3-0.2
		c0,0.2-0.1,0.3-0.3,0.4C88,22.8,88,22.7,88,22.7z M79.9,30.3c0-0.3,0.2-0.4,0.2-0.6c0.1-0.1,0.1,0,0.1,0
		C80.1,29.9,80,30.2,79.9,30.3z M81.1,28.4c0-0.2,0.3-0.3,0.2-0.5c0.3-0.1,0.1,0.1,0.3,0l0.1,0.1C81.6,28.2,81.4,28.2,81.1,28.4z
		 M85,24.2C85,24.2,85.1,24.2,85,24.2C85.1,24.2,85.1,24.2,85,24.2z M83.3,24.7c0.2-0.1,0.2,0.1,0.3,0.1c-0.2,0.2-0.1,0.4-0.2,0.6
		c-0.1-0.1-0.2,0-0.2,0.1c-0.1-0.1,0-0.2-0.1-0.2c-0.2,0-0.3,0.4-0.5,0.3C82.8,25.3,83.1,25,83.3,24.7z M82.2,26.5
		C82.1,26.5,82.2,26.4,82.2,26.5c0.2-0.4,0.1-0.6,0.3-0.8c0.1-0.1,0,0.3,0.1,0.1c0.3,0,0,0.1,0,0.3c0.2,0,0.2-0.2,0.4-0.2
		c0.1-0.2,0.1-0.3,0.3-0.3C83,26.1,82.7,26.4,82.2,26.5C82.3,26.4,82.2,26.5,82.2,26.5z M83.8,25.9c0,0.2,0.2,0,0.1,0.2
		c-0.2,0-0.1,0.3-0.3,0.3c-0.3-0.4,0.1-0.7,0.4-0.8c0.1,0.1,0.1,0.1,0.1,0.2C84,25.8,84,25.9,83.8,25.9z M84.3,24
		c0.1,0.1,0,0.1,0,0.3c-0.2,0.1-0.3,0.4-0.7,0.4c0,0.1-0.2-0.1,0,0c0.1-0.1,0.1-0.2,0-0.2c0.2,0,0.1,0.1,0.2,0.1
		c0.1-0.1,0-0.2-0.1-0.2c-0.1,0-0.2,0.1-0.2,0.2c-0.1,0-0.2,0-0.2-0.1c0.1,0,0.1,0,0.1,0c0.3-0.3,0.4-0.6,0.6-0.9
		c0.3-0.1,0.4-0.4,0.6-0.7c0.1-0.1,0.3-0.1,0.3-0.2c-0.1,0.1-0.2,0.1-0.2,0.1c0.2-0.3,0.5-0.5,0.5-0.8c0.2-0.1,0.4-0.3,0.6-0.3
		c0-0.1,0.1-0.1,0.2-0.1c-0.1-0.2,0.1-0.2,0.1-0.3c0.1,0,0.2,0.1,0.2,0.1c0,0.1-0.1,0.1-0.2,0.1c0,0.1,0.1,0.1,0.1,0.1
		c0,0.1-0.2,0.1-0.3,0.1c0,0.1-0.1,0.2,0,0.2c0,0.1-0.2,0-0.2,0.2c-0.3,0-0.5,0.2-0.6,0.4c0,0,0.1,0,0.1,0c0.1,0.1,0.1,0.1,0.1,0.2
		c-0.3,0.2-0.4,0.3-0.6,0.5c0.4,0.2-0.1,0.5-0.1,0.7C84.4,23.8,84.5,24,84.3,24z M84.6,24.7c-0.1-0.2,0.2-0.2,0.1-0.3
		c0.1,0,0.3,0,0.3,0C84.9,24.4,84.8,24.7,84.6,24.7z M91.4,28.5c-0.1-0.1-0.3-0.1-0.4-0.1C91.1,28.3,91.4,28.3,91.4,28.5
		c0.2-0.1,0.2,0,0.3,0C91.6,28.7,91.4,28.5,91.4,28.5z M92.3,35.5c0,0.1-0.1,0.1-0.1,0.2h-0.1c0,0-0.1,0-0.1,0
		C92.1,35.6,92.2,35.5,92.3,35.5z M91.7,36.2c-0.1,0-0.2,0.2-0.3,0.3C91.4,36.3,91.5,36.2,91.7,36.2z M83.6,41.4
		C83.6,41.3,83.7,41.4,83.6,41.4C83.6,41.7,83.5,41.4,83.6,41.4z M77.4,45.2c0,0,0,0.1-0.1,0.1C77.3,45.2,77.3,45.2,77.4,45.2z
		 M75,51.5c-0.1,0-0.1,0-0.3,0.1C74.7,51.4,75,51.2,75,51.5z M76.3,54.9c0.1,0,0.1,0,0.1,0.1C76.3,55,76.3,55,76.3,54.9z M76.3,54.2
		c0-0.1,0.1,0,0.1,0H76.3z M76.7,55.2c-0.1,0-0.1,0-0.2,0C76.5,55,76.8,55,76.7,55.2z M76.9,55.2c0.1-0.1,0.1-0.1,0.2-0.1
		C77.2,55.2,77.1,55.2,76.9,55.2z M77.7,55.2c-0.1-0.1-0.1-0.1-0.1-0.1L77.7,55.2L77.7,55.2z M77.7,54.2c0,0,0,0.1,0,0.2
		c-0.1,0-0.2-0.1-0.4-0.2c0.5-0.2,0.8-0.2,1.2-0.2C78.3,54.2,78,54.2,77.7,54.2z M79.7,54.8c-0.3,0.2-0.7,0-1,0.2
		c0.1-0.1,0.3-0.2,0.4-0.3c0.3,0.1,0.4-0.1,0.7-0.1c0-0.1,0.1,0,0,0c0,0.1-0.1,0.1-0.2,0.2H79.7c0-0.1,0.2-0.2,0.2,0
		C79.9,54.8,79.8,54.8,79.7,54.8z M78.7,54C78.7,53.9,78.9,53.9,78.7,54C78.7,54,78.7,54,78.7,54z M78.9,54.2
		c0.2-0.1,0.4-0.2,0.6-0.3c-0.1,0-0.1,0-0.1,0.2c-0.1-0.1-0.2,0-0.2,0.1C79.1,54.2,79,54.3,78.9,54.2z M80.2,54.5
		c0-0.2,0.2-0.1,0.4-0.2C80.6,54.5,80.3,54.4,80.2,54.5z M80.5,54.3c-0.1-0.1,0-0.1,0-0.2c-0.3,0.1-0.5,0.2-0.8,0.3
		c0-0.1,0-0.2,0-0.2c0.3,0.2,0.6-0.3,0.8-0.1c0.1-0.1,0.2-0.2,0.2-0.3c0.1,0.1,0.2,0,0.3,0c0,0.1,0.1,0.1,0.1,0.2
		c0.1,0,0.1-0.2,0.3-0.2c0,0.1,0.1,0.2,0.1,0.2C81.2,54.1,80.9,54.2,80.5,54.3z M80.3,53.9C80.2,53.9,80.2,53.8,80.3,53.9L80.3,53.9
		z M81.3,53.3c0-0.2,0-0.2,0.1-0.1C81.4,53.3,81.4,53.3,81.3,53.3C81.3,53.4,81.1,53.2,81.3,53.3z M83.6,51.3c0-0.2,0.2-0.2,0.2,0
		C83.7,51.3,83.7,51.3,83.6,51.3z M85.4,49.9c0.1-0.1,0.1-0.2,0.2-0.2C85.6,49.7,85.5,49.9,85.4,49.9z M86.7,49.9
		c0-0.2,0.1-0.1,0.1-0.2c0.1-0.1,0.1,0,0.1,0C86.8,49.8,86.7,49.9,86.7,49.9z M86.6,49c-0.1-0.3,0.4-0.4,0.5-0.7
		C87.3,48.5,86.7,48.7,86.6,49z M86.9,48.2c0,0.1-0.2,0.1-0.2,0.2C86.6,48.2,86.8,48.2,86.9,48.2z M87.2,51.4c-0.1-0.1,0-0.2,0-0.3
		c0.1,0,0.2,0,0.2,0.1C87.3,51.2,87.3,51.3,87.2,51.4z M87.3,48.2c0-0.1-0.1-0.1-0.1-0.2c0.1,0,0.3-0.1,0.4-0.1
		C87.5,47.9,87.4,48.2,87.3,48.2z M87.8,50.2c0-0.1,0.1-0.1,0.1-0.1C87.9,50.2,87.8,50.2,87.8,50.2z M87.9,49.9
		c-0.1-0.1,0-0.2,0.1-0.2C88,49.8,87.9,49.8,87.9,49.9z M88.4,50c0-0.1,0.1-0.3,0.1-0.4c0.1-0.1,0.1,0,0.2,0
		C88.7,49.9,88.5,49.9,88.4,50z M92.2,38.5c-0.3,0.2-0.2,0.6-0.3,0.9c-0.1,0-0.1,0.2-0.2,0.2v0.1c0,0.1,0,0.2-0.1,0.2
		c-0.4,1.1-1.1,2-1.5,3.1c-0.2,0.1-0.2,0.6-0.5,0.7c0,0.1,0,0.1,0,0.2c-0.4,0.3-0.6,0.9-1,1.2c0,0,0.1,0,0.1,0.1c-0.1,0-0.1,0-0.2,0
		c0.1,0.1,0.1,0.2,0.1,0.3c-0.1-0.1-0.2,0.1-0.3,0.1c0.1,0.4-0.4,0.7-0.7,1c0,0.1,0.3,0,0.3,0.1c-0.1,0.2-0.4,0.3-0.6,0.4
		c0,0.1,0,0.1,0,0.2c-0.2,0.2-0.6,0.3-0.8,0.5c0.1,0.1,0.2-0.1,0.3,0c-0.3,0.2-0.5,0.5-0.8,0.7c0.2,0.6-0.8,0.8-1,1.4
		c-0.3,0.1-0.4,0.3-0.6,0.4c0,0.1,0.1-0.1,0.2,0c-0.2,0.1-0.3,0.2-0.6,0.3c-0.9,0.7-2.2,1.4-3.4,2c-0.1,0.2-0.4,0.3-0.6,0.2
		c0,0.2,0.3,0.1,0.3,0.3c0,0-0.1,0.1-0.2,0.1c0.1,0.3,0.4,0,0.5,0c-0.1,0.1-0.1,0.2-0.1,0.3c-0.3-0.1-0.4,0.3-0.7,0.2
		c0-0.1,0-0.1,0-0.1c-0.2,0,0,0.2-0.2,0.2c-0.4,0-0.5,0.2-0.8,0.1c0-0.1,0.2,0,0.1-0.2c0.6,0.1,0.6-0.6,0.9-0.4c0-0.2,0-0.2,0-0.3
		c-0.8,0.1-1.7,0.6-2.6,0.6c-0.2,0,0-0.1-0.1-0.1c-0.5,0.1-1-0.1-1.5-0.1c-0.1-0.1-0.2-0.3-0.2-0.3c-0.2,0,0,0,0,0.2
		c-0.4-0.2-0.4-1-0.7-1.4c0.1-0.2,0.2-0.3,0.3-0.3c-0.1-0.4,0.3-0.8,0.2-1c0.1-0.2,0.4-0.5,0.3-0.7c0.2-0.3,0.6-0.6,0.7-1
		c1.3-1,2.4-2.2,3.8-3c0.1-0.1,0.2-0.2,0.2-0.3c0.6-0.3,1.1-0.7,1.6-1.1c0-0.2,0.1-0.3,0.2-0.3c0.1,0,0.1,0,0.1,0.1
		c1.8-1.6,4.1-2.6,6.1-4c0.1,0,0.1-0.1,0.1-0.1c0.4,0,0.4-0.3,0.7-0.3c0.1-0.1,0.1-0.3,0.3-0.3c0.3-0.3,0.7-0.5,1-0.8
		c0-0.1,0-0.1,0-0.1c0.1,0,0.1,0.1,0.1,0.2c0.1,0,0.2-0.1,0.2,0c0.1-0.1,0.2-0.3,0.2-0.3c0.5,0,0.7-0.6,1.1-1.1c-0.1,0-0.1,0-0.1,0
		c0.2-0.2,0.4-0.4,0.7-0.4C92.5,37.5,92.2,38.1,92.2,38.5z M114.2,27c-0.8,0.2-1.7,0.8-2.7,0.4c-0.4-1.4,0.2-3.2,0.9-4
		c0.5-0.6,1-0.9,1.5-1.3c0.2,0,0.2-0.1,0.3,0C115,23.3,114.4,25.3,114.2,27z M130.7,24.7c-0.8,0.2-1.7,0.8-2.7,0.4
		c-0.4-1.4,0.2-3.2,0.9-4c0.5-0.6,1-0.9,1.5-1.3c0.1,0.1,0.2,0,0.3,0C131.5,20.9,130.9,22.9,130.7,24.7z M138.7,50.7
		c-0.2,0.3-0.5,0.6-0.7,1c-1.2,0.7-1.9,2.3-3.8,2c0,0.1-0.1,0.1-0.3,0.1c-1.4-0.3-2.5-1.1-2.7-2.5c0-0.5,0.1-1.1,0.1-1.8
		c0.3-1.2,0.5-2.5,1.1-3.6c0.1-0.6,0.4-0.9,0.5-1.3c-0.1-0.1-0.2,0.4-0.4,0.3c0.1-0.2,0.1-0.4,0.2-0.5c-0.1-0.4,0.3-0.7,0.4-1.1
		c0.8-1.5,2-2.6,3-3.9c1-0.6,1.6-1.7,2.6-2.3c0,0.1-0.2,0.1-0.3,0.4c0.2,0,0.3-0.1,0.3-0.2c0.1,0.5,0.3,0.8,0.2,1.2
		c0.4,2.1,0.6,4.3,0.6,6.5C139.4,46.8,139,48.5,138.7,50.7z M151.2,38.7C151.2,38.7,151.3,38.7,151.2,38.7L151.2,38.7z M174.4,14.2
		c0-0.2,0.2-0.2,0.2,0C174.6,14.2,174.5,14.2,174.4,14.2z M177.8,12.8C177.8,12.7,177.9,12.7,177.8,12.8L177.8,12.8z"/>
	<path class="st0" d="M143.1,11.5C143.1,11.5,143.1,11.4,143.1,11.5C143.1,11.5,143.1,11.5,143.1,11.5z"/>
</g>
</svg>
