<?xml version="1.0" encoding="utf-8"?>
<!-- Generator: Adobe Illustrator 24.0.1, SVG Export Plug-In . SVG Version: 6.00 Build 0)  -->
<svg version="1.1" id="Layer_1" xmlns="http://www.w3.org/2000/svg" xmlns:xlink="http://www.w3.org/1999/xlink" x="0px" y="0px"
	 viewBox="0 0 176.7 65.6" style="enable-background:new 0 0 176.7 65.6;" xml:space="preserve">
<style type="text/css">
	.st0{fill:#FFFFFF;}
</style>
<g>
	<path class="st0" d="M18.3,24.4c0.1-0.1,0.1-0.2,0.1-0.3c0,0.1-0.1,0.1-0.1,0.2C18.3,24.4,18.3,24.4,18.3,24.4z"/>
	<path class="st0" d="M28.7,29.7C28.7,29.6,28.6,29.6,28.7,29.7L28.7,29.7z"/>
	<path class="st0" d="M20.8,42.9C20.7,42.9,20.8,42.9,20.8,42.9L20.8,42.9z"/>
	<path class="st0" d="M18.8,22.7c0,0,0,0,0.1,0c0-0.1,0-0.1,0-0.1C18.9,22.5,18.8,22.5,18.8,22.7C18.8,22.6,18.8,22.6,18.8,22.7z"/>
	<path class="st0" d="M28.9,44.7C28.9,44.7,28.9,44.7,28.9,44.7C28.9,44.7,28.9,44.7,28.9,44.7L28.9,44.7z"/>
	<path class="st0" d="M18.6,23.9c0.1,0,0-0.1,0-0.2C18.6,23.7,18.6,23.9,18.6,23.9z"/>
	<path class="st0" d="M33.1,23.6c0.1-1.7,0.8-3.3,1.1-4.8c0.3-0.3,0.4-0.9,0.6-1.3c-0.2-0.3,0-0.4,0.1-0.6c-0.1-0.2,0-0.2,0-0.3
		c0-0.2-0.1-0.2-0.1-0.2c0.3-0.2,0-0.5,0.3-0.7c-0.2,0-0.1-0.2-0.2-0.3c-0.7-0.2-0.9,0.2-1.3,0.4c-0.5,0.6-0.8,1.4-1.3,2.1
		c0.1,0.2-0.1,0.3-0.2,0.5c-0.4,1.1-0.7,2.3-0.9,3.6c0,0.3-0.2,0.6-0.3,0.9c-0.1,0.7-0.2,1.4-0.3,2.1c-0.1,0.5-0.3,1.1-0.4,1.7
		c-0.1,0.8-0.1,1.7-0.4,2.5c0,0.3,0.1,0.7-0.2,1c-0.1,0.1,0,0.1,0,0.2c0,0,0,0-0.1,0c0.2,0.7-0.1,0.9-0.1,1.5c-0.1,0-0.2,0-0.2,0.1
		c0.1,0.1,0.2,0,0.2,0.1c0,0.2-0.1,0.1-0.1,0.3c0.1,0,0.1,0,0.1,0.1c-0.1-0.1-0.1-0.1-0.1-0.1c-0.2,0,0.1,0.2,0,0.3
		c-0.1,0-0.1,0-0.2,0c-0.1,0.8-0.2,1.8-0.3,2.7c-0.1,0-0.1,0.1-0.2,0.1c0,0.1,0.1,0.1,0.1,0.3h-0.1c-0.1,0.1,0,0.1,0,0.2
		c-0.2,0.3-0.1,0.7-0.3,1c-0.1,1.4-0.7,2.6-1,3.9c-0.6,0.7-0.6,1.9-1.3,2.6c-0.5,0.1-0.4,0.7-0.8,0.9c-0.2-0.2-0.2-0.7-0.5-0.9
		c0.1,0,0.1-0.1,0.1-0.1c-0.5-0.7-0.3-1.6-0.9-2.2c-0.1-0.8-0.3-1.6-0.5-2.3c0.2-0.9-0.1-1.5-0.1-2.3c-0.2,0-0.2-0.1-0.3-0.1
		c0.1-0.1,0.1,0,0.2,0c0.3-1.1-0.4-2.7,0-4c-0.1,0-0.1,0-0.1,0c0-0.1,0.1,0,0.1-0.1c-0.3-0.7,0.2-1.7,0-2.3c0.1-0.1,0.1,0,0.1,0
		c-0.1-0.6,0.2-0.9,0-1.5c0.3-0.4-0.2-0.9,0.2-1.2c-0.1,0-0.1-0.1-0.1-0.2c0.4-0.5-0.1-1.5,0.3-1.9c0-0.3,0.1-0.6,0-0.7
		c0.1,0,0.1,0,0.1,0c0.1-0.3,0.1-0.5,0.3-0.8c0-0.2-0.1-0.4-0.2-0.5c0.1,0,0.1-0.1,0.1-0.1c0.1-0.2-0.1-0.2-0.1-0.3
		c0.6-0.3,0.3-1,0.7-1.5c-0.1-0.7,0.1-0.9,0-1.5c0.1,0,0.1,0,0.1,0c-0.2-0.8,0.3-1.2,0.1-1.9c0.2-0.1,0.2-0.7,0.2-1
		c0.1,0,0.2,0.1,0.2,0c-0.1-0.1-0.2-0.1-0.2-0.3c0.1,0,0.1,0.1,0.2,0.1c0-0.9,0.3-1.4,0.1-2.1c0.6-0.7,0.3-1.9,0.6-2.7
		c-0.1-0.4,0.1-1-0.1-1.3c0.2-0.5,0.1-0.9-0.2-1.4c-0.1,0-0.3,0-0.3,0c0-0.1,0-0.2,0-0.2c-0.5-0.3-0.8-0.7-1.3-0.7
		c-0.2,0-0.4,0.1-0.7,0.1c-0.2,0-0.7,0-1.1,0.2c0,0.2-0.2,0.2-0.2,0.5c-1.2,0.8-1.6,2.5-2.4,3.8c0,0.5-0.5,1.1-0.5,1.8
		c-0.1,0-0.2,0-0.3,0.1c0.1,0.6-0.4,0.8-0.3,1.3c-0.1-0.1-0.1-0.1-0.1,0c-0.7,2.4-1.7,5-2.4,7.4c0.1,0,0.1,0,0.1,0.2
		c-0.1,0-0.1,0-0.2,0c0.1,0.3-0.2,0.5,0,0.6c-0.2,0-0.1,0.3-0.2,0.5c0,0,0.1-0.1,0.1,0c-0.2,0,0,0.3-0.2,0.3c0-0.1,0-0.2,0-0.3
		c-0.3,0.2,0,0.6-0.2,0.9c0,0,0,0-0.1,0c0.1,0.3-0.1,0.4,0,0.6c-0.1-0.1-0.1,0-0.2,0c-0.2,0.4-0.2,1-0.5,1.4
		c0.1,0.2,0.1,0.4-0.1,0.5c0,0.5-0.1,0.7-0.3,1.2c-0.5,1-0.6,2.4-1,3.3c-0.2,0.3-0.1,1.1-0.5,1c-0.1,0.5,0,0.8-0.3,1.2
		c0.2,0,0,0.3-0.1,0.3c0,0-0.1,0.2,0,0.3c-0.2,0.2-0.2,0.2-0.2,0.5c-0.2,0.6-0.4,1-0.4,1.7c0,0,0,0-0.1,0c0,0.3,0,0.8-0.2,0.8
		c0.1,0.4-0.1,0.4-0.1,1h-0.1c0,0.3-0.1,0.4,0,0.6c-0.1,0-0.1,0-0.2,0c0,0.4-0.3,0.8-0.2,1.1c-0.4,0.5-0.4,1.3-0.7,2H10
		c0.1,0.3-0.1,0.3-0.1,0.5c-0.2,0,0-0.2-0.2-0.2c0.1,0.2-0.1,0.3-0.1,0.5c-0.1,0,0-0.3-0.2-0.3c0.2,0.4-0.1,0.4,0,0.7
		c-0.2,0-0.2,0.1-0.2,0.3c0,0,0,0-0.1,0c0,0.1,0,0.2,0,0.3c0.1,0,0.1,0,0,0.2c0,0,0,0.1,0,0.1c-0.1,0,0-0.1-0.1-0.1
		c-0.1,0.2-0.1,0.3,0,0.3c-0.2,0,0,0.2,0,0.2c-0.1,0.1-0.2,0.2-0.3,0.1c0,0.1,0.1,0.1,0.1,0.2c-0.1,0-0.1,0-0.2,0
		c-0.1,0.9-0.8,1.5-1.1,2.3c-0.1,0-0.1-0.1-0.2,0c-0.2,0.6-0.6,1-1.1,1.3c-0.1-0.2-0.4-0.3-0.3-0.7c-0.5-0.9-0.6-1.9-0.9-3
		c-0.1-0.6-0.2-0.9-0.3-1.1c0-0.3-0.2-0.5,0-0.6c-0.2-0.1-0.1-0.4,0-0.5c0-0.9,0.1-1.6,0-2.4c0.1,0,0.1-0.1,0.1-0.1
		c-0.1-0.1-0.1-0.3,0.1-0.4c-0.1-0.1-0.1-0.3-0.1-0.4c0.1-0.1,0.1-0.2,0.2-0.2c-0.1-0.6,0-1.4,0-1.8c0.2,0.1,0,0.3,0.2,0.4
		c0-0.4-0.2-0.9,0-1.2c0.1-0.1,0,0.2,0.1,0.2c0-0.2,0.1-0.2,0.1-0.3c-0.1-0.2-0.2-0.4-0.2-0.5h0.1c-0.1-0.1,0.1-0.1,0.1-0.2
		c-0.1-0.1-0.2,0.1-0.2,0c-0.2-0.3,0.2-0.6,0-0.9c0.3-0.5,0-1.4,0.3-1.8C5.5,34,5.4,34,5.4,34c0.2,0,0-0.3,0.2-0.2
		c0-0.5,0.1-0.8,0-1.4c0.2,0,0.2-0.1,0.2-0.1c-0.1-0.6,0.1-0.9,0-1.5h0.1c0-0.2-0.1-0.1-0.1-0.2C5.9,30.5,6,30.5,6,30.5
		c0.2-1.6,0.1-3.1,0.5-4.1c-0.1,0-0.2,0-0.2,0c0-0.2,0.1-0.3,0.1-0.4c0-0.2-0.1-0.3-0.1-0.4c0.4-0.9,0.2-1.5,0.4-2.6
		c-0.2-0.2,0-0.5,0.1-0.7c-0.2-0.2,0.3-0.5,0-0.7c0.1,0,0.1,0,0.1-0.1C7,21.4,6.8,21.2,7,21.2c-0.1-0.2,0-0.4,0.1-0.5
		c0.1-0.7,0.3-1.8,0.4-2.5c0.1,0,0.1,0,0.1,0c-0.1-0.5,0.2-0.9,0.1-1.3c0.1,0,0.1,0,0.1,0c0.2-1,0.1-2.1,0.5-2.8
		c-0.1-0.1-0.1-0.4-0.1-0.4c0.1,0,0.2,0,0.2,0c0-0.2,0.1-0.2,0.1-0.3c-0.1-0.5,0.1-1.1,0.2-1.5c0.2-0.6,0.1-1.4,0.2-2
		C8.9,9.7,9,9.7,9,9.7c0.1-0.1,0-0.2,0-0.2c0.1-0.2,0.2-0.3,0.2-0.5c0.1-0.8,0.3-1.4,0.3-2.1c0-0.1-0.1-0.2-0.1-0.3
		c0-0.3,0.2-0.9,0.1-1.3c0-0.1,0.1-0.1,0.1-0.2c-0.1,0,0-0.2-0.1-0.4c0.1-0.8-0.1-1.5-0.1-2.2C9,2.1,8.9,1.7,8.7,1.2
		c-0.3-0.2-0.6-0.4-1-0.6c-0.1,0-0.2,0-0.3,0C7.3,0.4,7.2,0.4,7.2,0.4C6-0.1,4.5-0.1,3.2,0.2c0,0.1-0.2,0.1-0.3,0.1c0,0,0,0.1,0,0.2
		C2,1.1,1,1.9,0.4,2.9c0,0.6,0.2,1.3,0.4,1.7C1,4.6,1.1,4.7,1.3,4.7c1-0.1,2.1-0.2,3-0.7C4.1,5.4,3.9,6.9,3.6,7.9
		c0.1,0,0.1,0,0.1,0.1c-0.4,1.8-0.7,3.9-1,5.9H2.6c0.2,0.6-0.2,1.3-0.1,1.8c-0.1,0-0.1,0-0.2,0c0.2,0.8,0,1.7-0.3,2.7
		c0.1,0.9-0.2,2.4-0.4,3.5c0,0.2,0.1,0.5,0,0.8c0,0-0.1,0-0.1,0.1c-0.1,0.5,0.1,1.1-0.2,1.6c0.1,0.2,0.1,0.7-0.1,0.8
		c0,1.2-0.3,2.7-0.3,3.8c0,0,0,0-0.1,0c0,0.1,0.1,0.1,0.1,0.2c-0.2,1.2-0.2,3-0.5,3.9c0.1,0,0.1,0.1,0.1,0.2
		c-0.2,1.1-0.1,2.8-0.4,3.8c0.1,0,0.1,0,0.1,0.1c0,1.2-0.2,3.1-0.1,4.4c0,0-0.1-0.1-0.1,0c0,0,0.1,0,0.1,0.1c-0.1,0.5,0.2,1-0.1,1.5
		c0.1,0,0.2,0,0.3,0c0.1,0.5,0.2,0.8,0.2,1.3c-0.1,0,0-0.1-0.1-0.1c-0.2,0.2-0.1,0.3,0,0.5c0.1,0.1-0.1,0-0.1,0.2
		c0.2,0.8,0.3,1.9,0.6,2.7c-0.1,0-0.1,0-0.1,0.1c0.2,0,0.2,0.2,0.3,0.4c-0.1,0-0.1,0-0.2,0c0,0.3,0.2,0.4,0.3,0.6
		c-0.1,0.3,0.1,0.7,0.1,1c0.2,0,0.1-0.2,0.2-0.2c0,0.1,0,0.1,0.1,0.2c0,0,0,0-0.1,0c0,0.1,0.1,0.2,0.1,0.2c0,0,0-0.1,0-0.1
		c0.1,0.2,0.2,0.4,0.3,0.6c0-0.1,0-0.1,0.1-0.1c0.1,0.3,0.3,0.7,0.6,0.9c0,0,0,0,0,0.1c0,0,0,0,0,0c0,0,0.1,0.1,0.1,0.1
		c-0.1,0-0.1,0-0.1,0.1c0.1-0.1,0,0.1,0.1,0.1c0-0.1,0.1-0.1,0.1-0.1c0,0.1,0.2,0.2,0.2,0.4c0.2,0,0.3-0.1,0.3,0s0.1,0.2,0.1,0.3
		c0.9,0.2,1.4,0.8,2.4,0.8v0.1c0.2,0,0.4,0,0.4-0.1c0.2,0.1,0.4-0.2,0.6,0C6.8,53,7,53.2,7.1,53c1.2-0.1,1.8-0.8,2.5-1.4
		c0.1,0,0.1,0,0.1,0c0.7-0.8,1.5-1.7,1.7-2.8c0.1,0,0.2,0,0.2,0c0.5-1.1,0.9-1.9,1.1-3.1c0.2,0,0.2-0.2,0.2-0.2
		c0.1-0.9,0.6-1.8,0.6-2.8c0.2-0.1,0.1-0.4,0.1-0.6c0.1,0.2,0.3,0,0.2-0.1c0.1-0.3,0.1-0.9,0.3-1.2c-0.2-0.4,0.2-1.1,0.1-1.6
		c0.2-0.1,0.4-0.7,0.3-0.9c0-0.1,0.1-0.2,0.1-0.2c0-0.9,0.4-1.6,0.5-2.6c0.1,0,0.2,0,0.2,0c-0.1-0.3,0.1-0.8,0.3-1
		c0-0.3-0.1-0.7,0.2-1c-0.2-0.2,0-0.5,0.1-0.6c-0.1-0.4,0.3-0.8,0.3-1.2c0-0.1-0.1-0.1-0.1-0.2c0.1-0.1,0.1,0,0.2,0
		c0.1-0.7,0.2-1.1,0.4-1.5c0-0.1,0-0.2-0.1-0.2c0.2-0.2,0.1-0.8,0.1-1c0.1,0,0,0.1,0.2,0.1c0-0.1,0-0.2,0-0.3
		c-0.1-0.1-0.2,0.1-0.2,0c0.2-0.3,0.3-0.6,0.3-1c0.1,0,0.1,0.1,0.2,0.1c-0.1-0.4,0.1-0.4,0-0.8c0.1,0,0.1,0.1,0.2,0.1
		c0-0.4,0-0.5,0-0.8c0.1,0,0.1,0.1,0.2,0.1c0.2-0.3,0.2-0.7,0.4-0.9c0-0.1-0.1-0.1-0.1-0.2c0.1-0.1,0.2-0.2,0.2-0.2
		c0-0.2-0.2-0.5,0-0.6c0.1,0,0.1,0.1,0.1,0.1c0-0.1,0.1-0.1,0.1-0.2c0-0.1,0-0.1,0-0.2c0.1,0,0.1,0,0.1,0c0.1-0.1,0.2-0.3,0.1-0.4
		c-0.1,0-0.1-0.1-0.1-0.1c0.2-0.1,0.1-0.4,0.1-0.5c0-0.1,0.2-0.1,0.2-0.2c0-0.1,0-0.3,0-0.3c0,0,0.1-0.1,0.1-0.1c0-0.1,0-0.1,0-0.1
		c0,0,0.1,0,0.1,0.1c0.1-0.1,0.1-0.1,0.1-0.2c0.1-0.1,0-0.2,0-0.2c0.1-0.4,0.5-0.9,0.3-1.3c0.5-0.3,0.2-0.8,0.5-1.1
		c0-0.2-0.2-0.3-0.1-0.3c0.3,0,0.2,0.2,0.3,0.2c0.2-0.3-0.1-0.6,0.2-0.8c0.1,0,0.1,0.3,0.2,0.3c0.1,0,0-0.2,0.1-0.2
		c0,0.9,0,1.7-0.3,2.4c0.1,0,0.1,0,0.1,0.1c0.1,0.7-0.1,1.4-0.2,2.1c0,0.4,0,0.8,0,1.2c-0.1,0-0.2,0.1-0.2,0.2
		c0.3,0.1,0,0.5,0.2,0.6C20,25.7,20,25.7,20,25.9c0.1,0,0.1-0.1,0.1,0c0.1,0.2-0.2,0-0.2,0.2c0.1,0.3-0.1,0.9,0,1.2
		c0-0.2,0.1-0.1,0.1,0c-0.1,0-0.1,0.1-0.2,0.1c0.1,0.2-0.1,0.4,0,0.7c0-0.1,0-0.2,0.1-0.2c-0.1,0.2,0,0.5-0.2,0.3
		c0.1,0.2,0.2,0.6,0.1,0.9c0,0-0.1-0.1-0.1-0.1c0,0.1,0.1,0.1,0.1,0.1c0,0.1-0.1,0.2-0.1,0.3c0.1,0.4,0,0.7,0,1c0-0.1,0.1,0,0,0
		c0,0.4,0.1,0.7-0.1,1.4c0.2,0.1,0,0.2-0.1,0.1c0.1,0.1,0,0.2,0,0.4c0.2,0-0.1-0.2,0.2-0.2c0.1,0.3,0,0.3,0,0.6
		c-0.1,0-0.2-0.1-0.2,0c0,0.1,0.2,0.4,0,0.5c0,0.1,0.1-0.2,0.1,0c0,0.7-0.1,0.9,0,1.5c0-0.1,0-0.1,0-0.1c0,0.3,0.1,0.9,0,1.3
		c0.3,0.3,0,0.6,0.1,1c0.1,0,0.1-0.1,0.1,0c-0.1,0.2-0.3,0.6-0.1,0.9c0-0.1,0.1-0.2,0.1-0.1c0,0.1,0,0.2-0.1,0.1c0,0,0,0,0,0.1
		c0.1,0.1,0.1,0.1,0.1,0.1c0-0.1,0.2,0,0,0c0,0.2-0.1,0.4,0.1,0.5c-0.1,0.1-0.2,0.3-0.1,0.4c0-0.2,0.1-0.3,0.2-0.3
		c0.1,0.2-0.1,0.2-0.1,0.4c0.1-0.1,0.1,0,0.1,0.1l-0.1-0.1c-0.2,0.1,0.1,0.2-0.1,0.3c0.3-0.1-0.1,0.2,0.1,0.3
		c0.1-0.1,0.1-0.3,0.1-0.4c0.1,0.1,0.2,0.6,0,0.8c0.2-0.1,0.2-0.1,0.3,0c0,0.1-0.1,0-0.2,0.1c0,0.3,0.1,0.4,0.1,0.6
		c0.2,0.1,0-0.2,0.2-0.1c0,0.2,0.1,0.2,0,0.3c-0.1,0,0-0.1-0.1-0.1c0,0.4,0.2,0.6,0.2,1c0.3,0.3,0.4,0.9,0.4,1.2
		c0.2,0.7,0.6,1.1,0.6,1.8c0.3,0,0.3,0.3,0.4,0.5c0,0-0.1,0-0.1,0.1c0,0,0.1-0.1,0.2,0c0,0.4,0.3,0.3,0.3,0.7
		c0.1,0.1,0.3,0.1,0.3,0.2c0.1,0.5,0.5,0.9,0.9,1.2c0.2-0.1,0.4,0,0.4,0.2c0.3-0.1,0.5,0.1,0.8,0.1c0.5-0.2,0.8-0.1,1.3-0.1
		c0.4-0.2,0.7-0.4,1.1-0.5c0.7-0.8,1.4-1.7,1.8-2.6c0-0.5,0.5-0.8,0.3-1.1c0.1,0,0.2,0,0.2,0c0.2-0.7,0.2-1.5,0.4-2h-0.1
		c0.1-0.1,0.2-0.1,0.2-0.2c0-0.1-0.1-0.1-0.1-0.1c0.1,0,0.1,0,0.1-0.1c0.3-0.7,0.3-1.4,0.4-2.1c-0.1-0.3-0.1-0.6,0.2-0.6
		c0.4-2.7,0.8-4.1,1.1-6.4h-0.1c0.1-0.1,0.3-0.2,0.3-0.4c-0.2-0.1-0.2,0.2-0.2,0.1c0.1-0.3,0.1-0.5,0.1-0.9c0.1-0.1,0.1,0,0.1,0
		c0.3-0.9,0.2-1.5,0.1-2.3c0.4-0.1,0.1-0.7,0.1-0.8c0.1,0,0.1,0,0.1,0c-0.1-0.1,0.3-0.4,0-0.6c0.4-0.3-0.2-0.8,0.2-1
		c0-0.2-0.1-0.5,0.1-0.7c-0.2-0.2,0.2-0.6,0.2-1c-0.1,0-0.1,0-0.1,0C32.5,24.2,32.5,24.1,33.1,23.6z M23.8,20.2
		C23.7,20.2,23.8,20.1,23.8,20.2L23.8,20.2z M4.7,19.7C4.7,19.7,4.7,19.7,4.7,19.7C4.7,19.7,4.8,19.7,4.7,19.7z M0.5,44.6
		C0.6,44.4,0.6,44.6,0.5,44.6C0.5,44.7,0.5,44.6,0.5,44.6z M1.6,49.4c0,0,0,0.1-0.1,0.1C1.5,49.4,1.6,49.4,1.6,49.4z M2.2,50.6
		C2.1,50.4,2,50.4,2,50.2C2.2,50.2,2.3,50.4,2.2,50.6z M2.6,51.1c0.1,0,0.2,0,0.3,0.3C2.7,51.4,2.6,51.2,2.6,51.1z M3.1,51.7
		c-0.1,0,0-0.2-0.2-0.1c0-0.2,0.1-0.1,0.1-0.2C3,51.6,3.2,51.7,3.1,51.7z M3.2,51.7c-0.1,0,0-0.1-0.1-0.1
		C3.2,51.4,3.3,51.6,3.2,51.7z M3.7,29.1C3.7,28.9,3.8,29.1,3.7,29.1L3.7,29.1z M17,27.1C17,27.1,17,27.1,17,27.1
		C17,27.1,17.1,27.1,17,27.1z M17.3,25.7c0.1,0.2,0.1,0.3,0.1,0.5C17.1,26.2,17.3,25.9,17.3,25.7z M18.1,24.2L18.1,24.2
		C18.3,24.1,18.3,24.4,18.1,24.2z M18.2,23.4c0-0.1-0.1-0.4,0-0.4c0.1-0.1,0.2,0,0.2,0.1c-0.1,0.1,0,0.2,0,0.3
		C18.3,23.4,18.2,23.4,18.2,23.4z M19.4,20.7c-0.1,0-0.1-0.1-0.1-0.2C19.5,20.6,19.4,20.7,19.4,20.7z M19.7,19.2
		c0-0.2,0.1-0.2,0.2-0.2C19.9,19.1,19.9,19.2,19.7,19.2z M20.1,18.1C20.1,17.9,20.2,17.9,20.1,18.1L20.1,18.1z M20.2,18.7
		c0-0.1,0-0.2,0-0.2C20.3,18.7,20.4,18.7,20.2,18.7z M20.3,18.4c0-0.1-0.2-0.1-0.2-0.2c0.1,0,0.1-0.1,0.1-0.1
		C20.4,18.1,20.3,18.2,20.3,18.4z M19.7,34.6c0-0.2,0-0.3,0-0.3C19.8,34.2,19.8,34.6,19.7,34.6z M19.9,29.2
		C19.9,29.2,19.9,29.2,19.9,29.2C19.9,29.2,19.9,29.2,19.9,29.2z M21.4,30.6L21.4,30.6C21.6,30.7,21.4,30.7,21.4,30.6z M21.6,25.9
		C21.5,25.6,21.7,25.7,21.6,25.9L21.6,25.9z M22.2,45.7C22.3,45.7,22.3,45.7,22.2,45.7C22.2,45.7,22.2,45.7,22.2,45.7z M22.4,46.2
		C22.5,46.2,22.5,46.2,22.4,46.2C22.4,46.2,22.4,46.2,22.4,46.2z M22.8,33.2C22.7,33.2,22.7,33.1,22.8,33.2L22.8,33.2z M29.8,39.4
		C29.8,39.4,29.8,39.4,29.8,39.4C29.8,39.4,29.9,39.4,29.8,39.4z M30.5,37.4c0-0.2,0-0.3,0-0.4C30.6,36.9,30.5,37.2,30.5,37.4z"/>
	<path class="st0" d="M2.5,51.9c0,0.1,0.1,0.2,0.2,0.2C2.7,51.9,2.6,51.9,2.5,51.9z"/>
	<path class="st0" d="M3.1,52.4C3,52.4,3.1,52.6,3.1,52.4L3.1,52.4z"/>
	<path class="st0" d="M13,32.9C12.9,32.9,13,33.2,13,32.9L13,32.9z"/>
	<path class="st0" d="M51.2,25.2c-0.4,0.7-0.8,1.3-1.2,2c-0.1,0-0.2,0-0.2,0c-0.1,0.4-0.3,0.7-0.6,0.9c-0.3,1-1,1.2-1.3,2.1
		c-0.9,1-1.5,2.1-2.4,3c-0.1,0-0.2,0-0.2,0c0,0.1-0.1,0.2-0.1,0.3c-1.8,1.4-3.3,3.6-6.7,2.9c-0.5-0.3-0.9-0.7-1.3-1
		c-0.3-0.6-0.8-1.2-0.8-1.9c1.2-0.5,1.9-1.5,3-2.2c0.2-0.4,0.7-0.7,0.9-1.1c0.3,0,0.3-0.3,0.6-0.3c0.1-0.3,0.5-0.4,0.6-0.7
		c0.3-0.1,0.6-0.4,0.8-0.7c1.7-1.4,3.2-2.9,4.4-4.8c0.1-0.4-0.1-0.5,0-0.7c-0.2-0.1-0.2-0.3-0.2-0.5c-0.2-0.4-0.8-0.7-1.3-1
		c-0.3-0.2-0.4-0.4-0.6-0.5c-0.1-0.1-0.1,0-0.2,0c-0.1-0.1-0.1-0.2-0.2-0.2c-2-0.4-3.8,0.3-5,1c-2.3,1.7-4,3.9-5.4,6.4
		c-0.1,0.4-0.2,0.6-0.4,0.9c-0.2,1.2-0.5,2.4-0.4,4c0.1,0.9,0.4,1.7,0.7,2.4c0.4,0.6,0.9,1.1,1.3,1.7c0.7,0.5,1.5,0.9,2.4,1.2
		c0.1-0.1,0.2,0,0.2-0.1c0.1,0.1,0.3,0.1,0.4,0.2c0-0.2,0.3-0.1,0.3-0.1c0.5,0.1,0.9,0,1.3,0.1c0.3-0.2,0.8-0.2,1.1-0.5
		c0.1,0,0.1,0.1,0.2,0.1c2.2-0.7,4.1-2,5.4-3.7c1-0.8,1.7-1.9,2.6-2.8c0.1-0.3,0.2-0.7,0.5-0.8c-0.1-0.2,0.4-0.4,0.2-0.5
		c0,0-0.1,0-0.1,0c0.2-0.4,0.3-0.8,0.4-1c0.1-0.9,0.7-1.4,0.8-2.2c0.1-0.2,0.4-0.5,0.4-0.9c0.2,0,0.2-0.1,0.2-0.3
		c0.4-0.5,0.8-1.1,0.7-1.8C51.7,24.4,51.3,24.9,51.2,25.2L51.2,25.2z M39.7,24.9c1.5-1.1,3.3-2.7,5.6-2.4c0.2,0.1,0.3,0.4,0.3,0.7
		c-0.1,0.2-0.2,0.2-0.2,0.5c-1.4,1.9-3.1,3.6-5.1,4.6c-0.2,0.3-0.7,0.4-0.9,0.7c-1,0.5-2,1.1-2.9,1.7C36.6,28.2,38.4,26.7,39.7,24.9
		z M49,30.9C49,31.2,48.9,30.9,49,30.9c0.1-0.1,0.2-0.2,0.2-0.3C49.3,30.7,49.1,30.9,49,30.9z"/>
	<path class="st0" d="M50,29.2C50,29.2,50.1,29.2,50,29.2C50,29.2,49.9,29.2,50,29.2z"/>
	<path class="st0" d="M82.5,50.1C82.5,50.2,82.7,50.1,82.5,50.1C82.6,50.1,82.6,50.1,82.5,50.1z"/>
	<path class="st0" d="M85.2,6.9c-0.1,0-0.1,0.2-0.1,0.2C85.3,7.2,85.4,6.9,85.2,6.9z"/>
	<path class="st0" d="M86.1,6.6C86.1,6.7,86.2,6.7,86.1,6.6L86.1,6.6z"/>
	<path class="st0" d="M84.6,7.6L84.6,7.6C84.6,7.7,84.6,7.6,84.6,7.6z"/>
	<path class="st0" d="M92,32.1c0.1,0,0.1-0.1,0.1-0.1L92,32.1z"/>
	<path class="st0" d="M94,21.2v0.1C94.2,21.4,94.2,21.2,94,21.2z"/>
	<path class="st0" d="M66.9,52.1C67,51.9,66.9,51.9,66.9,52.1L66.9,52.1z"/>
	<path class="st0" d="M93.9,14.7c0-0.1-0.1,0.1,0,0.1C93.9,14.7,93.9,14.7,93.9,14.7z"/>
	<path class="st0" d="M94,20.9C94,20.9,94,20.9,94,20.9C94,20.9,94,20.9,94,20.9z"/>
	<path class="st0" d="M82.7,9.6C82.7,9.6,82.7,9.6,82.7,9.6C82.7,9.6,82.7,9.6,82.7,9.6C82.8,9.6,82.7,9.6,82.7,9.6z"/>
	<path class="st0" d="M115.3,47.9C115.2,47.9,115.3,47.9,115.3,47.9L115.3,47.9z"/>
	<path class="st0" d="M120.7,45.6c-0.1-0.2,0.2-0.8,0.1-1.1C120.7,44.7,120.5,45.2,120.7,45.6z"/>
	<path class="st0" d="M111.8,56.1C111.8,56,111.8,56,111.8,56.1C111.8,56,111.8,56,111.8,56.1z"/>
	<path class="st0" d="M113.7,51.4C113.8,51.2,113.8,51.4,113.7,51.4c-0.1,0.4-0.2,0.9-0.1,1.1c0.1-0.5,0.3-0.8,0.3-1.3
		c0-0.1,0.2-0.3,0.1-0.2C113.9,51.1,113.7,51.2,113.7,51.4z"/>
	<path class="st0" d="M111.3,57.9C111.4,57.9,111.4,57.7,111.3,57.9L111.3,57.9z"/>
	<path class="st0" d="M115,41.9v0.1C115.1,42.1,115.1,41.9,115,41.9z"/>
	<path class="st0" d="M120.6,46.7c0-0.5,0.4-0.7,0-1.2C120.6,46.1,120.4,46.4,120.6,46.7z"/>
	<path class="st0" d="M115.4,46.6c0,0.2-0.2,0.7-0.4,0.8c-0.1,0.3,0,0.8-0.3,1c0,0.3-0.2,0.7-0.3,1c0.4,0,0.5-0.9,0.8-1.3
		c-0.3-0.1,0-0.4-0.2-0.6C115.3,47.4,115.3,46.9,115.4,46.6C115.5,46.7,115.4,46.4,115.4,46.6z"/>
	<path class="st0" d="M115.6,44.7c0.1,0.1-0.1,0.2,0.1,0.2c0-0.6,0.3-1,0.3-1.6c0.1-0.1,0.2-0.3,0.1-0.4
		C115.7,43.4,115.9,43.9,115.6,44.7z"/>
	<path class="st0" d="M116.3,41.2c-0.2,0.5-0.5,0.8-0.2,1.4c0.1-0.3,0.1-0.6,0.3-0.7c-0.1-0.2,0-0.5,0.1-0.6
		C116.4,41.2,116.5,41.1,116.3,41.2z"/>
	<path class="st0" d="M114.9,46.7c-0.1,0,0.3-0.4,0-0.5C114.8,46.4,114.7,46.7,114.9,46.7z"/>
	<path class="st0" d="M115,45.9c0,0.1,0,0.1,0,0.1S115.1,45.9,115,45.9z"/>
	<path class="st0" d="M132.6,19.9c0.6-0.1,0.8-0.7,1.2-1c-0.1-0.3,0-0.7,0-1c-0.2-0.3-0.4-0.6-0.7-0.8c-0.5,0.1-0.7-0.4-1.2-0.3
		c-0.1,0.1-0.1,0.2-0.3,0.2C130.7,17.9,131.3,19.7,132.6,19.9z"/>
	<path class="st0" d="M139.2,25.7C139.2,25.7,139.2,25.7,139.2,25.7c-0.1,0-0.1,0.1-0.1,0.1C139.2,25.9,139.2,25.9,139.2,25.7z"/>
	<path class="st0" d="M139.7,25.5C139.7,25.5,139.7,25.6,139.7,25.5C139.7,25.5,139.7,25.5,139.7,25.5
		C139.7,25.5,139.7,25.5,139.7,25.5z"/>
	<path class="st0" d="M139.7,25.5C139.7,25.5,139.7,25.5,139.7,25.5c-0.1-0.1-0.1-0.1-0.2-0.1c-0.1,0.1,0,0.2,0.1,0.2
		C139.6,25.6,139.6,25.6,139.7,25.5C139.6,25.5,139.6,25.5,139.7,25.5z"/>
	<path class="st0" d="M139,26.4l-0.1,0.1C139,26.6,139,26.6,139,26.4z"/>
	<path class="st0" d="M139.4,25.2c-0.1,0.1-0.2,0.3-0.1,0.4C139.3,25.4,139.4,25.4,139.4,25.2z"/>
	<path class="st0" d="M146.8,24.4C146.8,24.6,147,24.4,146.8,24.4L146.8,24.4z"/>
	<path class="st0" d="M146.6,24.9c0.1-0.1,0.3-0.2,0.1-0.3C146.7,24.7,146.5,24.7,146.6,24.9z"/>
	<path class="st0" d="M146.8,24.4C146.9,24.4,146.8,24.4,146.8,24.4L146.8,24.4z"/>
	<path class="st0" d="M139.2,26.4c0,0-0.1,0.1-0.1,0.2c0,0,0,0,0.1,0C139.2,26.5,139.2,26.5,139.2,26.4
		C139.2,26.4,139.2,26.4,139.2,26.4z"/>
	<path class="st0" d="M138.9,27.4C138.9,27.4,138.9,27.4,138.9,27.4c0-0.1,0-0.1,0-0.2C138.8,27.3,138.9,27.4,138.9,27.4z"/>
	<path class="st0" d="M139.6,24.7C139.6,24.7,139.6,24.7,139.6,24.7c0.1,0,0.1,0,0.1,0C139.7,24.6,139.7,24.7,139.6,24.7z"/>
	<path class="st0" d="M176,23.4L176,23.4c-0.5,0.7-0.9,1.3-1.3,2c-0.1,0-0.2,0-0.2,0c-0.1,0.4-0.3,0.7-0.6,0.9c-0.3,1-1,1.2-1.3,2.1
		c-0.9,1-1.5,2.1-2.4,3c-0.1,0-0.2,0-0.2,0c0,0.1-0.1,0.2-0.1,0.3c-1.8,1.4-3.3,3.6-6.7,2.9c-0.5-0.3-0.9-0.7-1.3-1
		c-0.3-0.6-0.8-1.2-0.8-1.9c1.2-0.5,1.9-1.5,3-2.2c0.2-0.4,0.7-0.7,0.9-1.1c0.3,0,0.3-0.3,0.6-0.3c0.1-0.3,0.5-0.4,0.6-0.7
		c0.3-0.1,0.6-0.4,0.8-0.7c1.7-1.4,3.2-2.9,4.4-4.8c0.1-0.4-0.1-0.5,0-0.7c-0.2-0.1-0.2-0.3-0.2-0.5c-0.2-0.4-0.8-0.7-1.3-1
		c-0.3-0.2-0.4-0.4-0.6-0.5c-0.1-0.1-0.1,0-0.2,0c-0.1-0.1-0.1-0.2-0.2-0.2c-2-0.4-3.8,0.3-5,1c-2.3,1.7-4,3.9-5.4,6.4
		c-0.1,0.4-0.2,0.6-0.4,0.9c-0.1,0.9-0.3,1.7-0.4,2.7c-0.4,0.5-0.7,1.1-1.2,1.5c-0.5,0.6-0.9,1.3-1.6,1.7c-0.1,0.2-0.3,0.2-0.3,0.5
		c-0.8,0.5-1.3,1.3-2.3,1.5c-0.2-0.1-0.2,0-0.5-0.1c-0.6-0.5-0.4-1.6-0.5-2.4c0.3-1,0.4-2.3,0.6-3.4c0.1,0,0.1-0.1,0.1-0.1
		c0-0.4,0.3-0.8,0.2-1c0.3-0.7,0.5-1.5,0.5-2.3h0.1c0.2-0.9,0.5-2.2,0.5-3.3c0-0.1-0.1-0.1-0.2-0.2c0.1-0.7-0.5-0.8-0.8-1.3
		c-0.8-0.5-1.8-0.9-2.7-0.6c-0.1,0-0.1,0.2-0.2,0.1c-0.9,0.1-1.6,0.7-2.4,1.1c-0.4,0.6-1.2,0.8-1.6,1.5c-0.3,0.1-0.5,0.3-0.6,0.5
		h-0.1c-0.3,0.7-1.2,1.2-1.6,2c-0.1-0.1-0.1-0.1-0.1-0.1c-0.2,0.4-0.5,0.6-0.8,0.9c0,0,0,0,0,0v-0.1c-0.1-0.1-0.1-0.1-0.1-0.1
		c0.1-0.4,0.3-0.3,0.5-0.6c-0.1,0-0.2-0.1-0.2-0.1c0.1,0.1,0,0.2-0.1,0.2c0-0.1,0-0.2,0-0.3c0.1,0,0.1,0,0.2,0c0,0,0,0,0-0.1
		c0,0,0,0,0,0c-0.1-0.1-0.2-0.2-0.1-0.2c0.1,0,0.1,0.1,0.1,0.2c0-0.1,0-0.2,0-0.4c0.1,0,0.1-0.1,0.2-0.1c0.1-0.2,0-0.3-0.1-0.4
		c0.2,0,0.1,0.1,0.2,0.1c-0.1-0.5,0.5-1.1,0.5-1.6c0,0.1,0.1,0.1,0.1,0.1c-0.1-0.2,0-0.4,0.1-0.5c-0.1,0-0.1-0.1-0.1-0.2
		c0.1,0,0.1-0.1,0.2,0c0.1-0.3,0-0.4,0.2-0.5c-0.2-0.1-0.2-0.2-0.2-0.3c0.2,0.1,0.3-0.1,0.4-0.1c-0.1-0.4,0.3-0.4,0.2-0.8
		c0.3-0.7,0.6-1.4,0.8-1.9c-0.1-0.5-0.8-0.8-1.4-0.9c0-0.1-0.1-0.2-0.2-0.2c-0.1,0.2-0.3,0-0.6-0.1c-0.2,0.1-0.5,0.2-0.7,0
		c-0.2,0.1-0.4,0.3-0.7,0.4c0.1,0.2,0,0.3-0.1,0.4c0.1,0.1,0.2,0.1,0.2,0.2c-0.2,1-0.6,2.2-1,3.2c0,0.1,0.2,0.1,0.1,0.3
		c-0.1,0.3-0.5,0.6-0.4,0.9c0-0.1,0-0.1,0.1-0.1c0,0.3-0.2,0.4-0.3,0.5l0.1,0.1c0,0,0,0.1-0.1,0.1c-0.2,0.1,0,0.3-0.2,0.6
		c0.2,0,0.1,0.2,0.1,0.3c-0.1,0-0.1,0-0.2,0.1c0,0,0,0,0.1,0c0.1,0.1-0.1,0.1,0.1,0.1c0,0.1-0.1,0.1-0.2,0.1c0-0.1,0-0.1,0-0.2
		c-0.1,0.1-0.1,0.3-0.1,0.5h-0.1c0,0.2,0,0.3,0,0.3s0-0.1,0.1-0.1l0.1,0.1c0-0.1,0.1-0.3,0.2-0.3c0,0.2,0,0.4-0.1,0.4
		c-0.1,0-0.1-0.1-0.1-0.1c0,0,0,0,0,0.1c0,0,0,0,0,0c0,0.1,0,0.1-0.1,0.1c0,0.1-0.1,0.3-0.2,0.4c-0.1,0.2-0.1,0.3-0.2,0.4
		c0,0,0.1,0,0.1,0c0,0.2,0,0.1-0.1,0.1c0,0,0,0.1-0.1,0.1c0.3-0.1,0,0.3,0.1,0.4c-0.1,0-0.2,0.2-0.3,0.2c0,0,0,0,0,0c0,0,0,0,0.1,0
		c0,0.1,0,0.1-0.1,0.1c0,0.1-0.1,0.3,0,0.4c0-0.1,0.1-0.2,0.1-0.1c0,0.1-0.1,0.2-0.1,0.3c-0.5,0.7-0.9,1.5-1.2,2.4
		c-0.2-0.1-0.1,0.1-0.2,0.1c-1,2.6-2.4,4.9-4.4,6.5c-0.5,0.3-0.9,0.7-1.6,0.6c-0.2-0.1-0.4-0.2-0.7-0.3c-0.4-0.3-0.4-0.8-0.7-1.2
		c0-0.1,0.1-0.1,0.1-0.2c-0.2-1.1,0.1-1.5,0.1-2.5c0.2-0.9,0.1-2.1,0.8-2.8c-0.1-0.4,0.2-0.6,0.3-0.9c0.2-0.1,0-0.1,0-0.2
		c0.2-0.1,0.2-0.2,0.3-0.3c0.3-1,0.9-1.7,1.1-2.8c0.4-0.9,0.5-1.7,0.6-2.5c0-0.3-0.3-0.5-0.5-0.8c-0.7-0.2-1.5-0.5-2.3-0.3
		c-0.1,0.6-0.3,1.1-0.4,1.5c-2,1.8-4.1,3.5-7.2,4.4c-0.5,0.4-1.3,0.6-2.1,0.6c0.7-0.6,1.4-1.4,1.7-2.3c0.5-0.5,0.9-1.3,1.4-1.8
		c-0.1-0.4,0.6-1,0.6-1.4c0.5-0.2,0.5-0.8,0.9-1.1c-0.2-0.6,0.9-1,0.7-1.8c0.5-0.4,0.6-1.1,1.1-1.5c-0.1-0.1,0-0.1,0-0.3
		c0.3-0.3,0.3-0.7,0.6-1c0.1-0.2,0-0.2,0-0.3c0.3-0.2,0.2-0.7,0.5-0.9c-0.1,0-0.1,0-0.1,0c0.5-0.4,0.5-1.3,0.8-1.6
		c0.1-0.6,0.3-1.3,0.5-2c-0.1-0.1,0.1-0.4,0-0.6c0,0,0.1-0.1,0.1-0.2c-0.1-0.5-0.2-1-0.3-1.3c-0.7-0.3-0.9-1.2-1.7-1.4V9.7
		c-0.7-0.3-1.3-0.6-2-0.9c0,0.1,0,0-0.1,0c-0.3,0.2-0.7,0.4-0.7,0.8c-0.1,0-0.1,0.1-0.2,0.1c-0.2,0.4-0.3,0.6-0.6,0.8
		c-0.8,1.7-2,3.4-2.7,5.1c-0.1,0-0.1,0-0.1,0c-0.3,0.8-0.9,1.5-1.1,2.2c-0.1,0-0.1,0.1-0.2,0.1c-0.2,1-1.1,2-1.3,3.1
		c-0.2,0.1-0.2,0.3-0.3,0.3c-0.3,1.1-1.1,2.2-1.2,3.4c-0.4,0.6-0.4,1.3-0.7,2c-0.1,0.2-0.2,0.3-0.3,0.5c-0.1,0-0.2,0-0.2,0
		c-0.1,0.4-0.3,0.7-0.6,0.9c-0.3,1-1,1.2-1.3,2.1c-0.9,1-1.5,2.1-2.4,3c-0.1,0-0.2,0-0.2,0c0,0.1-0.1,0.2-0.1,0.3
		c-1.8,1.4-3.3,3.6-6.7,2.9c-0.5-0.3-0.9-0.7-1.3-1c-0.3-0.6-0.8-1.2-0.8-1.9c1.2-0.5,1.9-1.5,3-2.2c0.2-0.4,0.7-0.7,0.9-1.1
		c0.3,0,0.3-0.3,0.6-0.3c0.1-0.3,0.5-0.4,0.6-0.7c0.3-0.1,0.6-0.4,0.8-0.7c1.7-1.4,3.2-2.9,4.4-4.8c0.1-0.4-0.1-0.5,0-0.7
		c-0.2-0.1-0.2-0.3-0.2-0.5c-0.2-0.4-0.8-0.7-1.3-1c-0.3-0.2-0.4-0.4-0.6-0.5c-0.1-0.1-0.1,0-0.2,0c-0.1-0.1-0.1-0.2-0.2-0.2
		c-2-0.4-3.8,0.3-5,1c-2.3,1.7-4,3.9-5.4,6.4c-0.1,0.4-0.2,0.6-0.4,0.9c-0.2,1-0.4,2-0.4,3.3c-0.1,0.1-0.3,0.2-0.5,0.3
		c-0.5,0.6-1.2,0.9-1.8,1.4c-0.7,0.2-1,0.7-1.7,0.9c-0.1,0.3-0.3,0.3-0.5,0.3c0,0.2-0.2,0.2-0.4,0.3c1-2.4,1.7-5,2.4-7.6
		c0-0.1-0.1-0.1-0.1-0.2c0.4-0.7,0.5-1.5,0.6-2.4c0.2-1,0.7-1.9,0.7-3c0.1-1.4,0.3-3,0.1-4.3c0.1-0.4-0.1-0.9,0-1.3
		c-0.1-0.3-0.3-0.7-0.1-1c-0.1,0-0.1-0.1-0.1-0.1c0.2-2.2-0.4-4.7-1-6.7c0-0.1-0.2,0-0.2-0.1c0.1,0,0.1-0.1,0.1-0.1
		c-0.3-1-0.6-1.9-1.3-2.5c-0.1-0.4-0.4-0.7-0.8-0.9V5.2c-0.2-0.1-0.4-0.3-0.5-0.5c-0.8-0.4-2.2-0.7-3.3-0.6c-0.1-0.3-0.7,0-0.8,0.1
		c0.5-0.1,0.9-0.1,1.5,0c-0.7,0.1-1.5,0-2.2,0.2c-0.2,0-0.3,0.1-0.4,0.1c-0.2,0-0.5,0.2-0.6,0.3c0,0.2-0.3,0.3-0.5,0.4
		c0,0,0-0.1,0-0.1c-0.1,0-0.2,0-0.3,0.2c0.1,0,0.1,0,0.1,0c0,0-0.1,0-0.1,0.1c0,0,0,0,0-0.1c-0.1-0.1-0.2,0-0.2,0.1c0,0,0,0,0,0
		c-0.2,0.1-0.4,0.3-0.4,0.5c-0.1,0-0.2,0-0.3,0c0,0.2-0.1,0.4-0.2,0.2c-0.1,0.1,0,0.3-0.2,0.3c0,0.1-0.1,0.1-0.2,0.1
		c0-0.2,0.1-0.1,0.1-0.2c-0.3,0.1-0.7,0.5-0.6,0.6c-0.1,0.3-0.2,0-0.3,0.4c-0.5,0.6-1.1,1-1.7,1.5c-0.1,0.5-0.4,0.5-0.7,0.6
		c0,0.1-0.1,0.2-0.2,0.2c0-0.1,0-0.1,0.1-0.1c0,0,0,0-0.1,0c-0.1,0.3-0.2,0.6-0.5,0.6c-0.4,0.4-0.8,0.8-1.1,1.3h-0.1
		c-0.5,0.8-1.1,1.5-1.8,2.1c-0.1,0,0-0.1-0.1-0.1c0,0.1-0.1,0.3-0.3,0.3c0-0.4-0.1-0.8,0.1-1.2c0.1-0.1,0-0.2,0-0.3
		c0.1-0.1,0.3-0.5,0.1-0.6c0.1,0,0.1-0.2,0.2-0.2c0-0.4,0.1-1.3,0.3-1.9c0-0.2,0-0.5,0-0.8c-0.3-0.5-0.3-1.7-0.4-2.4
		c-0.1-0.8-0.7-1.1-1-1.7c-0.4,0-0.5-0.2-0.7-0.4c-0.5-0.1-0.7-0.6-1.4-0.6c-0.6,0-0.9,0.6-1.1,1.1c0.2,0.1-0.2,0.6,0,0.7
		c0,0.1-0.2-0.1-0.2,0.1c0,0.1,0.2,0,0.2,0.1c-0.2,0.4,0,1.2-0.3,1.7c0,0.2,0.1,0.1,0.1,0.3c-0.1,1.2-0.3,2.5-0.3,4
		c0,0.2-0.2,0.3-0.3,0.4c0.2,0-0.1,0.1-0.1,0.3c0.2,0.2,0.2,0.6,0,0.7c0.1,0.5,0,1.2-0.3,1.7c0.1,0.4,0,0.8-0.1,1.1
		c0,0.1,0,0.4-0.5,0.5c0.1,0.1,0.1,0.2,0,0.4c0.2,0.4-0.1,1-0.1,1.6c0,0,0,0-0.1,0c0.1,0.2,0,0.2,0.1,0.4c-0.1,0.4,0,0.9-0.2,1.1
		c0.1,1.2-0.4,2.2-0.4,3.3c-0.1,0.1-0.2,0-0.2,0.1c0,0.1,0.1-0.1,0.1,0c0,0.3-0.2,0.8-0.1,1c-0.1,0.1-0.2,0.1-0.2,0.2
		c0.2,0.3-0.2,0.7-0.3,0.9c0,0.1,0.1,0.1,0.1,0.2c-0.4,0.9-0.6,1.9-1.1,2.7c0,0.1,0,0.2-0.1,0.2c0-0.1,0-0.2,0.1-0.2
		c0-0.2,0.1-0.2,0.1-0.3c-0.2,0.2-0.4,0.6-0.2,0.7c-0.1,0.1-0.1,0-0.2,0c0,0.1,0.1,0,0.1,0.1c0,0.1-0.1,0.2,0,0.3
		c-0.6,0.8-0.8,2-1.4,2.9c0,0.2-0.1,0.6-0.3,0.8c-0.2,0.7-0.5,1.7-0.9,2.4c0.2,0.3-0.3,0.9-0.1,1.2c-0.3,0.1-0.1,0.6-0.4,0.7
		c0-0.1,0-0.1,0-0.1c0,0.4-0.1,0.9-0.3,1.2c0.1,0,0.1,0.2,0.1,0.3c-0.2-0.1-0.3,0.6-0.2,0.9c-0.1,0-0.2-0.1-0.2,0
		c0.1,0.6-0.1,1.3-0.3,1.7c0,0,0,0.1,0,0.2c0,0.1-0.1,0.2-0.2,0.3c0,0.2,0,0.4,0,0.5c0,0.2-0.2,0.5-0.2,0.7c0,0.1,0.1,0.1,0.1,0.1
		c-0.1,0.8-0.4,1.8-0.4,3c0,1.6-0.2,3.2,0.3,4.4c0.3,0,0.3,0.2,0.3,0.3c0.1,0.2,0,0.2,0,0.4c0.3,0.1,0.4,0.5,0.4,0.8
		c0.1,0,0.1-0.1,0.2-0.1c0.1,0.2,0.1,0.4,0.3,0.5h0.2v0.1c1.1-0.2,2.1-0.1,3.1-0.3c0.2-0.2,0.4-0.2,0.7-0.2c0.1-0.2,0.3-0.3,0.1-0.5
		c0.2,0,0.4-0.2,0.5-0.1c0.1-0.2,0.3-0.3,0.3-0.6c0.2,0,0.2-0.2,0.3-0.2c0.7-1.8,1.1-3.2,1.1-5.5c0.2-0.4-0.1-0.8,0.2-1.1
		c-0.1-0.7,0.3-1.6,0.1-2.4c0.2-0.3,0.2-0.6,0.1-1c0.1-0.1,0.2-0.1,0.2-0.2c0.1-0.6,0-1.3,0.2-1.9c-0.2-0.3,0.2-0.7,0-1
		c0.4-0.8,0.4-1.9,0.7-2.9c0.1-0.1,0-0.2,0-0.3c0.2-0.8,0.3-1.5,0.3-2.5c0.2-0.4,0.3-0.9,0.3-1.5c0.4-0.7,0.3-2.2,0.7-3.1
		c-0.2-0.2,0.1-0.6,0-1c0.2-0.2,0.1-0.5,0.1-0.7c0.1-0.2,0.3-0.5,0.1-0.6c0.1,0,0.1-0.2,0.2-0.3c0-0.9,0.7-1.6,1-2.5
		c0.3-0.1,0.3-0.5,0.6-0.7c0.2-0.6,0.7-0.9,0.8-1.6c0.5-0.6,0.9-1.4,1.4-2.1c0.1-0.1,0-0.1,0-0.2c0.3-0.3,0.8-0.5,0.7-1
		c0.2,0,0.2-0.1,0.3-0.1c0.7-1,1.6-1.7,2-3c0.1,0,0.3-0.1,0.3-0.1c0.8-1.6,2.3-2.6,3.4-3.8C87.1,9.2,87.3,9,87.3,9
		c0.1,0,0.1,0.1,0.1,0.1c0.1,0,0.1,0,0.1,0c0.8-0.8,1.7-1.3,2.5-2C90.1,7.4,90.2,7,90.3,7c0.1,0,0.3,0,0.4,0c1.1,0.7,1.8,2,2.1,3.3
		c0.5,0.5,0.4,1.6,0.8,2.2c0-0.2-0.1-0.3,0-0.4c0,0.2,0.2,0.5-0.1,0.5c0.1,0.4,0,0.6,0.2,0.9c-0.3,0.2,0,0.7,0,1
		c0.1-0.2-0.2-0.7,0.1-0.7c0.1,0.5,0.1,1,0.2,1.7c-0.4,0.5,0.2,1.2,0,1.7c0.1,0,0.1,0,0.1,0s0,0.2-0.1,0.3c0.1,0,0.2-0.1,0.2,0
		c0,1.1-0.1,2.2-0.2,3.3c0-0.1,0.1-0.1,0.2-0.1c0,1.2,0,2.3-0.3,3.4c-0.3,0-0.2,0.2-0.3,0.3c0.1,0.1,0.2-0.1,0.2,0
		c-0.1,1.1-0.5,2.3-0.6,3.3h0.1c0,0.1-0.2,0.1-0.2,0.2c0.2,0.7-0.4,1.5-0.4,2.3c-0.1,0,0,0.1-0.1,0.1c0.1,0.4-0.2,0.7-0.2,1.2h-0.1
		c0,0.3-0.1,0.7-0.3,0.9c0.1,0,0.1,0.2,0.1,0.2c-0.4,0-0.2,0.7-0.6,0.7c0.1,0.2-0.2,0.7-0.3,0.9c0.1,0.1,0.2,0,0.2,0.1
		c-0.1,0.1-0.3,0-0.3,0.2c0,0.1,0.2-0.2,0.2,0c-0.5,0.3-0.6,0.9-0.9,1.5c0.1,0,0.1,0,0.1,0.1c-0.2-0.1-0.1,0.1-0.3,0.1
		c-0.1,0.1,0,0.1,0,0.2c-0.1,0.1-0.4,0.1-0.4,0.3c0.1,0.1,0.2-0.1,0.2,0c0,0.3-0.1,0.2,0.1,0.3c-0.8,0.1-1.6,0.6-2.4,0.7
		c-0.4,0.4-1.1,0.5-1.7,0.7c0,0,0-0.1-0.1-0.1c-0.2,0.3-0.8,0.3-1.2,0.4c-0.6,0.2-0.9,0.7-1.7,0.8c-0.7,0.3-1.3,0.8-2,1.1
		c-0.1,0.1-0.3,0.4-0.6,0.3c0,0.2,0.1,0.1,0,0.2c-0.7,0.5-1.3,1.2-2,1.7c0,0.3-0.1,0.5-0.4,0.5c0,0.5-0.4,0.7-0.7,1
		c0.1,0,0.1,0.1,0.1,0.1c-0.3,0.2-0.5,0.7-0.6,1c0-0.1,0-0.1-0.1-0.1c0,0.5-0.3,0.7-0.4,1.1c0,0,0,0-0.1,0c-0.3,1.3-1.3,2.9-1.1,4.1
		c0-0.1,0.1,0,0.1,0c-0.2,0.4,0,1,0,1.7c0.3,0.2,0.5,0.6,0.7,0.9c0.8,0.7,1.9,0.8,3.1,1c2.1-0.1,3.4-0.9,4.8-1.6
		c0.6-0.6,1.4-1,1.7-1.8h0.1c0.1-0.4,0.4-0.6,0.7-0.8c0.8-1,1.5-2,2.1-3c0.1-0.4,0.3-0.4,0.3-0.8c0.1,0,0.3,0,0.3-0.1
		c0-0.2,0.3-0.5,0.4-0.7c0.2,0,0-0.1,0-0.1c0.4-0.3,0.5-1,0.8-1.2c0.2-0.9,0.8-1.6,1.1-2.5c0.8-0.6,1-1.7,1.5-2.5
		c0.9-0.4,1.3-1.1,2.2-1.4v-0.1c0.4-0.3,0.8-0.5,1.2-0.8c0.2-0.2,0.3-0.3,0.7-0.3c0-0.1,0.1-0.1,0.1-0.3c0.7-0.6,1.4-1.2,2.2-1.6
		c0.1-0.1,0.2-0.2,0.3-0.3c0.1,0.4,0.3,0.8,0.4,1.2c0.4,0.6,0.9,1.1,1.3,1.7c0.7,0.5,1.5,0.9,2.4,1.2c0.1-0.1,0.2,0,0.2-0.1
		c0.1,0.1,0.3,0.1,0.4,0.2c0-0.2,0.3-0.1,0.3-0.1c0.5,0.1,0.9,0,1.3,0.1c0.3-0.2,0.8-0.2,1.1-0.5c0.1,0,0.1,0.1,0.2,0.1
		c2.2-0.7,4.1-2,5.4-3.7c1-0.8,1.7-1.9,2.6-2.8c0-0.1,0.1-0.2,0.1-0.3c-0.1,0.5-0.2,1-0.3,1.5c-0.1,0-0.2,0-0.2,0
		c-0.2,1.1-0.5,2.1-0.8,3.2h0.1c-0.7,2.1-0.9,3.8-1.5,5.8c0.1,0,0.1,0.1,0.1,0.1c-0.5,1.2-0.6,2.4-0.9,3.7c0.1,0,0.1,0,0.1,0
		c-0.1,0.8-0.4,1.6-0.5,2.6c0,0.3-0.3,0.7-0.3,1c-0.5,3.1-1.3,6.5-1.3,9.7c0,0.5,0,1,0,1.5l-0.1,0.1c0,0.4,0,0.9,0.1,1.4
		c0.1,0.5,0.3,1.1,0.3,1.6c0.1,0.1,0.2,0.1,0.2,0.2c-0.1,0.5,0.4,0.7,0.7,1v0.1c1.7,1.6,5.1,0.7,6.3-1.3l0.1-0.1
		c0.3-0.6,0.6-1.1,0.7-1.6c0.3-0.1,0.3-0.4,0.3-0.6c0.3-0.2,0.4-0.4,0.3-0.8c0.4-0.4,0.5-1,0.5-1.7c0.5-1.1,0.4-2.4,0.7-3.7
		c-0.2-0.1,0.3-0.7,0.1-1.1c0.3-0.3,0.1-0.8,0.1-1.2c0-0.2,0.2-0.4,0.2-0.6h-0.1c0-0.1,0.1-0.1,0.1-0.2c0-0.5,0-0.9,0-1.3
		c0.3-0.7,0.3-1.3,0.3-1.9c-0.3,0.3-0.1,0.9-0.4,1.3c0-1.1,0.2-2.1,0-3.1c0.2-0.6,0.4-1.8,0.3-2.3c0.2-0.3,0-0.4,0.2-0.7
		c0.1,0.2,0.1,0.3,0.1,0.4c0.2-0.3-0.3-0.6-0.1-1h-0.1c0.2-0.1,0-0.7,0.2-0.8c0-0.6,0-1,0-1.7h-0.1c0.3-0.2,0.2-0.7,0.3-1.1
		c-0.2-0.2,0.1-0.9-0.2-1.2c0.2-0.3,0.1-0.7,0.1-1c0.1,0.1,0.1,0.1,0.1,0c-0.4-0.6,0.1-1.1-0.1-1.6c0,0.1-0.1,0.1,0,0
		c-0.1-0.9,0.1-1.8-0.6-3.1c0.3-0.1,0-0.3,0.1-0.5c0.2,0.1,0.3,0,0.4,0c0.1-0.1,0-0.1,0-0.2c1.1-0.3,1.9-0.9,2.8-1.4
		c0.6-0.7,1.4-1.2,2.3-1.7c1.3-1,2.8-2,4-3.2c-0.2,0.6-0.4,1.3-0.5,2c-0.3,0.6-0.4,1.4-0.5,2.1c-0.1,0.2-0.2,0.3-0.2,0.5
		c0,0.1,0.1,0.2,0.1,0.2c-0.1,0.2-0.2,0.5-0.2,0.7c-0.1,0.4-0.2,0.7-0.1,1.1c-0.1,0-0.1,0.1-0.1,0.2c-0.2,1.4-0.2,3.3,0.5,4.6
		c0.6,0.9,1.9,1.5,3.3,1.5c0.6,0,1.2-0.3,1.6-0.6c1.3-0.8,2.3-2.3,2.8-3.6c0.1-0.1,0.1-0.3,0.3-0.4c0.2-0.5,0.4-0.9,0.6-1.4
		c0,0,0,0,0.1,0.1c-0.2,0.3-0.3,0.8-0.4,1.1c0,0,0-0.1-0.1-0.1c0.1,0.3-0.3,0.3-0.1,0.5c0-0.1,0.1-0.1,0.1-0.2
		c0.1,0.1,0.2,0.6-0.1,0.5c0,0.2,0.1,0.5-0.2,0.5c0.1-0.1,0.1-0.2,0.1-0.3c-0.1-0.1-0.2,0-0.3-0.1c0,0.4-0.3,0.5-0.1,0.7
		c-0.3,0.3-0.1,0.7-0.4,1.2c0.4,0.4-0.4,0.8-0.1,1.3c0,0-0.1,0-0.1,0.1c0,0.5-0.4,1.3-0.5,1.8c0.1,0,0.1,0.3,0,0.4
		c0.2,0,0.3,0.2,0.2,0.3c0.1-0.2,0.3,0.1,0.3-0.1c-0.1,0-0.1-0.1-0.1-0.1c0-0.1,0.3-0.1,0.3,0c-0.1,0.1-0.1,0.1-0.1,0.1
		c0,0.1,0,0.1,0,0.1c0.2-0.2,0.2,0.1,0.3,0.1l0.1-0.1c0,0,0-0.1,0.1-0.1c0.1,0,0,0.1,0,0.1c0.6,0.2,1,0,1.6,0.1
		c0.1-0.1-0.1-0.1,0-0.2c0.2,0.1,0.4,0.2,0.7,0.1c0-0.2,0-0.4,0.1-0.4s0.2,0.1,0.2,0.1c0.6-0.2,0.1-0.7,0.4-1.1
		c-0.1-0.9,0.3-1.4,0.4-2.1c-0.1,0-0.1,0-0.1-0.1c0.3-0.2,0.1-0.6,0.4-0.8c-0.2-0.2,0.1-0.2,0-0.5c0,0.1,0.1,0.1,0.1,0.1
		c0.1-0.4,0.2-0.8,0.3-1.1c0.1-0.5,0.4-0.8,0.5-1.4c0.5-0.7,0.7-1.6,1-2.4c0.2-0.1,0.4-0.4,0.4-0.7c0.2,0,0.2-0.4,0.3-0.5
		c-0.1-0.2-0.1-0.3-0.1-0.4c0.5-0.7,0.8-1.2,1.3-1.9c0.4,0,0.5-0.8,0.9-0.9c0.2-0.1,0.1-0.2,0.1-0.4c0.3,0,0.3-0.3,0.5-0.4
		c-0.2-0.1,0-0.6,0.3-0.4c0.1-0.2,0-0.1,0.1-0.3c0.1,0.1,0.3,0,0.4-0.1c-0.1,0-0.2,0.1-0.2-0.1s0.2-0.1,0.3-0.1
		c-0.1-0.3,0.3-0.5,0.7-0.6c0,0.1-0.1,0.2-0.1,0.3c0.1,0,0.2,0,0.2,0c0,0.1,0,0.1,0,0.1c0.3-0.2,0.3-0.6,0.7-0.6
		c0.2-0.3,0.5-0.4,0.9-0.6c0.5-0.2,1.1-0.6,1.8-0.6c0.2,0.1,0.4,0.4,0.3,0.6c0.4,0.5,0,1.7-0.1,2.1c0.1,1.3-1,2.9-0.9,4
		c-0.4,1-0.4,2-0.5,3.1c0.1,0.1,0,0.4,0.1,0.5c-0.1,0-0.2,0.1-0.2,0.1c0.1,0.2,0.2,0,0.2,0.1c-0.1,0.6-0.2,0.7,0,1.2
		c0,1.4,1,2.4,2.2,2.7c0-0.1,0.1-0.1,0.1-0.1c0.6,0.3,1.3,0,1.8-0.2c0-0.1,0-0.2,0.1-0.3c0.1,0,0.1,0,0.2,0c0.6-0.8,1.5-1.1,1.8-2.2
		c0.1,0,0.1,0.1,0.2,0.1c-0.1-0.3,0.2-0.2,0.1-0.5c0.7-0.9,1.2-1.8,1.8-2.8c0,0.1,0,0.3,0,0.4c0.1,0.9,0.4,1.7,0.7,2.4
		c0.4,0.6,0.9,1.1,1.3,1.7c0.7,0.5,1.5,0.9,2.4,1.2c0.1-0.1,0.2,0,0.2-0.1c0.1,0.1,0.3,0.1,0.4,0.2c0-0.2,0.3-0.1,0.3-0.1
		c0.5,0.1,0.9,0,1.3,0.1c0.3-0.2,0.8-0.2,1.1-0.5c0.1,0,0.1,0.1,0.2,0.1c2.2-0.7,4.1-2,5.4-3.7c1-0.8,1.7-1.9,2.6-2.8
		c0.1-0.3,0.2-0.7,0.5-0.8c-0.1-0.2,0.4-0.4,0.2-0.5c-0.2,0-0.2,0.2-0.3,0.3c0.3-0.4,0.4-0.9,0.6-1.2c0,0,0,0,0-0.1c0,0,0,0,0,0
		c0.1-0.9,0.7-1.4,0.8-2.2c0.1-0.2,0.4-0.5,0.4-0.9c0.2,0,0.2-0.1,0.2-0.3c0.4-0.5,0.8-1.1,0.7-1.8C176.4,22.7,176,23.2,176,23.4z
		 M164.3,23.2c1.5-1.1,3.3-2.7,5.6-2.4c0.2,0.1,0.3,0.4,0.3,0.7c-0.1,0.2-0.2,0.2-0.2,0.5c-1.4,1.9-3.1,3.6-5.1,4.6
		c-0.2,0.3-0.7,0.4-0.9,0.7c-1,0.5-2,1.1-2.9,1.7C161.3,26.6,163,25.1,164.3,23.2z M121.7,20.4c0.2-0.1,0.1-0.4,0.3-0.4
		c0-0.2,0.1-0.4,0.3-0.5c0-0.1,0.1-0.3,0-0.4c0.2,0,0.2-0.1,0.3-0.1c-0.1-0.5,0.5-1.1,0.4-1.4h0.1c-0.1-0.2,0.2-0.5,0.2-0.7
		c0.3-0.1,0.3-0.5,0.5-0.6c0-0.1,0.1-0.2,0-0.2c0.3-0.4,0.6-0.8,0.7-1.4c0.3-0.4,0.6-0.7,0.9-1.3c0.1,0,0.2-0.1,0.2-0.3
		c0.1,0,0.1,0,0.1,0c0,0.2-0.1,0.3,0,0.5c-0.1,0.1-0.1,0.3-0.2,0.3c0,0.1-0.1,0.3,0,0.3c-0.1,0.2-0.2,0.3-0.2,0.6
		c-0.6,0.8-0.7,2-1.4,2.9c0,0.3-0.2,0.3-0.2,0.6c-0.6,0.8-0.9,1.8-1.5,2.5c-0.2,0-0.1,0.1-0.3,0.1c0,0,0.1,0,0.2,0
		c-0.1,0.1-0.1,0.3-0.3,0.3c0,0.3-0.4,0.7-0.6,1c-0.2,0.1,0-0.1-0.1-0.1C121.2,21.4,121.7,20.9,121.7,20.4z M94.7,5.7
		C94.7,5.9,94.6,5.9,94.7,5.7L94.7,5.7z M67.1,38.9c0.1,0,0.1,0,0.1,0.1C67.1,38.9,67.1,38.9,67.1,38.9z M70.7,36.4
		c0.2,0.1,0,0.3,0,0.4c0,0.1,0,0.4,0,0.7c0,0.1-0.2,0.4,0,0.4c-0.2,0.5-0.1,1.2-0.4,1.7c0,0.9-0.3,1.6-0.2,2.5
		c-0.2,1.3-0.2,3.3-0.7,4.6c0,0.7-0.2,1.2-0.3,1.8c-0.1-0.1-0.2-0.3-0.3-0.4c0.1-0.9-0.2-2.7,0.3-4c-0.2-0.7,0.3-1,0-1.5
		c0.2-0.2,0.1-0.4,0.3-0.5c0-0.1,0-0.2-0.1-0.2c0.3-0.5,0.2-0.8,0.3-1.5c0.4-1.2,0.7-2.7,1-4c0.2-0.1,0.2-0.4,0.3-0.6
		c0-0.1,0-0.1,0-0.1c0.1,0,0,0.2,0.1,0.2C70.9,36.2,71,36.4,70.7,36.4z M71.1,35.7c0-0.1,0.1-0.1,0.1-0.1L71.1,35.7z M87.1,6.2
		c0-0.1,0.1-0.1,0.1-0.1S87.2,6.1,87.1,6.2z M88.8,5.2c0,0,0.1-0.1,0.1,0C89,5.2,88.8,5.2,88.8,5.2z M93.4,11.7
		C93.4,11.6,93.4,11.6,93.4,11.7C93.5,11.6,93.5,11.7,93.4,11.7z M84.2,48.1C84.2,48.2,84.1,48.2,84.2,48.1L84.2,48.1z M86.2,45.2
		C86.3,45.2,86.3,45.2,86.2,45.2C86.5,45.2,86.1,45.6,86.2,45.2z M86.5,44.9c0-0.1,0-0.1,0-0.2C86.7,44.6,86.7,44.9,86.5,44.9z
		 M87.9,40.7C87.9,40.7,88,40.7,87.9,40.7c-0.1,0.3-0.1,0.9-0.4,0.9c0,0.3-0.2,0.8-0.5,0.9c0.2,0.4-0.5,0.9-0.5,1.3
		c-0.1,0-0.1-0.1-0.2,0c0.1,0.1,0.2,0,0.2,0.2c-0.4,0.5-0.6,1.2-0.9,1.6c-0.1,0.2-0.2,0.4-0.3,0.5c0.1,0,0.2,0,0.3,0
		c0-0.1,0-0.1,0.1-0.1c0,0.1,0,0.1-0.1,0.1c0,0.1-0.1,0-0.3,0.1c-0.3,0.6-0.7,1.2-1.1,1.7c0.3,0,0.3-0.2,0.5-0.2
		c0.1,0.4-1,0.2-0.8,0.7c-0.2,0.1-0.2,0.3-0.3,0.6c-0.1,0-0.1,0-0.2,0c0,0,0,0,0,0c0,0-0.1,0.2-0.2,0.2c0.1,0.2,0.2,0,0.3,0
		c-0.1,0.2-0.6,0.2-0.5,0.6c-0.1,0.1-0.3,0.2-0.3,0.3c0.3,0.1-0.4,0.3-0.5,0.4c0,0.1,0.1,0,0.1,0c-0.1,0.5-1,0.5-1.5,0.8
		c-0.3,0.4-1,0.3-1.3,0.6c-0.2,0-0.4,0-0.6,0c-0.3-0.5-0.9-0.8-0.8-1.7c0-0.1-0.1-0.1-0.1-0.1c0-0.1,0-0.2,0.1-0.2
		c0.1-0.7,0.6-1,0.6-1.7c0.3-0.6,0.3-1,0.7-1.5c-0.1-0.3,0.3-0.3,0.3-0.6c0-0.5,0.6-1,1-1.3c0-0.1,0-0.1,0-0.2
		c0.7-0.5,1.3-1.2,2-1.6c0.1,0,0.2,0,0.2,0s0-0.1,0-0.2c0.9-0.4,1.6-0.8,2.4-1.1c0.2-0.2,0.7-0.3,0.9-0.3c0.1-0.1,0.2-0.3,0.3-0.3
		c0-0.1,0.2-0.1,0.3-0.1c0.1,0,0,0,0-0.1c0.6-0.2,1-0.5,1.6-0.5c-0.1,0-0.1,0.1-0.2,0.1C88,40.4,88,40.7,87.9,40.7z M83.5,49.1
		C83.5,49,83.5,49,83.5,49.1C83.5,49,83.5,49,83.5,49.1z M88.4,41.2c0-0.1,0.1-0.2,0.2-0.2C88.6,41.2,88.5,41.2,88.4,41.2z
		 M105.8,24.9c1.5-1.1,3.3-2.7,5.6-2.4c0.2,0.1,0.3,0.4,0.3,0.7c-0.1,0.2-0.2,0.2-0.2,0.5c-1.4,1.9-3.1,3.6-5.1,4.6
		c-0.2,0.3-0.7,0.4-0.9,0.7c-1,0.5-2,1.1-2.9,1.7c0-0.1,0-0.2,0-0.2c0.2-0.4,0.3-0.8,0.5-1.2c-0.1-0.1-0.1-0.1-0.2-0.1
		C103.5,27.5,104.8,26.4,105.8,24.9z M110.8,57.1c0,0,0-0.1,0.1-0.1C110.9,57.1,110.9,57.1,110.8,57.1z M118.5,34.4L118.5,34.4
		C118.4,34.2,118.6,34.4,118.5,34.4z M116.2,40.1c0,0.1-0.1,0.2-0.1,0.3c-0.1,0,0-0.3,0-0.3C116.2,40.1,116.2,40.1,116.2,40.1z
		 M115.2,30.9C115.2,31.2,115,30.9,115.2,30.9c0-0.1,0.1-0.1,0.1-0.2C115.3,30.8,115.3,30.9,115.2,30.9
		C115.3,30.9,115.2,30.9,115.2,30.9z M114.6,42.4c0.1-1,0.7-1.8,0.6-2.7c0.2-0.3,0.4-0.7,0.4-1.1c0.4-0.2,0.3-0.8,0.5-1.1
		c0.2,0.3-0.2,0.5,0,0.7c-0.4,0.3,0,1-0.3,1.2h0.1c-0.2,0.5-0.1,0.9-0.5,1.2c0,0.1,0.1-0.1,0.1,0c-0.3,0.3-0.1,0.8-0.3,1.3
		c0.2,0.6-0.6,1.2-0.6,1.8c-0.1,0,0,0.2-0.2,0.2c0,0.1,0.1,0.1,0.1,0.1c-0.1,0-0.1,0.1-0.2,0.1c0,0,0,0,0,0c0-0.1-0.1-0.1-0.1-0.1
		C114.5,43.4,114.3,42.9,114.6,42.4z M114.2,44.2c0,0,0,0.1-0.1,0.1C114.1,44.3,114.1,44.3,114.2,44.2
		C114.1,44.2,114.1,44.2,114.2,44.2z M112.3,49.1c0.1-0.2-0.1-0.1-0.1-0.1c0-0.1,0.1-0.2,0.1-0.3h0.1c0,0.3,0,0.5-0.1,0.8
		C112.1,49.4,112.1,49.1,112.3,49.1z M112.5,52.1c-0.1,0.1-0.1-0.2-0.1-0.3c0.2-0.1,0.1,0.1,0.2,0.1
		C112.7,51.9,112.4,51.9,112.5,52.1z M112.5,52.4c0.1-0.1,0.1-0.1,0.3-0.1c0,0.1,0,0.1,0,0.2c-0.2,0-0.2,0.1-0.3,0.1l0.1,0.1
		c-0.1,0.1-0.2,0.2-0.3,0.4c-0.1-0.3,0.1-0.7,0.1-1C112.5,52.2,112.5,52.4,112.5,52.4z M112,55.1c0,0.1,0.1,0.1,0.1,0.1
		c0,0.3-0.2,0.4-0.2,0.6c-0.3,0,0.1-0.4-0.1-0.4C111.9,55.4,111.9,55.2,112,55.1C111.9,55.1,111.9,54.9,112,55.1
		c-0.2-0.3,0-0.5-0.1-0.6c0.2-0.1,0.2-0.6,0.4-0.7C112.3,54.2,112.3,54.7,112,55.1z M112.2,50.7C112.2,50.6,112.2,50.6,112.2,50.7
		C112.3,50.7,112.3,50.7,112.2,50.7C112.3,50.7,112.3,50.7,112.2,50.7C112.1,50.7,112.3,50.7,112.2,50.7z M112.2,53.4
		c0.1,0,0.1,0.2,0,0.2C112.2,53.6,112.1,53.4,112.2,53.4z M112,50.2h0.1c-0.1,0.8-0.2,1.6-0.4,2.1C111.7,51.6,111.9,50.9,112,50.2z
		 M111.6,54.7c0-0.1,0-0.2-0.1-0.1C111.6,54.4,111.7,54.7,111.6,54.7z M111.4,58.2c-0.1-0.1-0.1-0.1-0.1-0.3
		c0.1-0.1,0.2-0.2,0.4-0.2C111.6,57.9,111.6,58.2,111.4,58.2z M111.8,56.9c-0.2-0.1-0.1,0.1-0.1,0.2c-0.1-0.1-0.1-0.4,0-0.5
		C111.8,56.7,111.8,56.9,111.8,56.9C111.8,57.2,111.6,56.9,111.8,56.9z M111.7,56.4c0-0.1,0.1-0.3,0.1-0.4c0-0.2,0.1-0.2,0.2-0.2
		c0,0.2-0.1,0.1-0.2,0.2c0,0,0.1,0,0.2,0c0,0.2-0.1,0.3,0,0.5C111.8,56.6,111.8,56.7,111.7,56.4z M112.1,62.1
		C112.2,61.9,112.1,62.2,112.1,62.1c-0.1,0-0.1,0.1-0.1,0c-0.2-0.3-0.2-0.8,0-1c-0.1-0.2,0.1-0.5-0.1-0.7c0-0.1,0.1,0,0.1-0.1
		c0.3,0.1-0.1,0.5,0.3,0.4C111.8,61.1,112.3,61.4,112.1,62.1z M112.1,58.9c0.3-0.1,0.1-0.4,0.3-0.5c-0.1-0.8,0.2-1.3,0.1-2
		c0.1-0.2,0.2-0.5,0.1-0.7c0.3-0.6,0-1.1,0.3-1.6c0.1,0,0.1,0,0.2,0c0,0.1,0,0.3,0,0.5c0.1,0,0,0.2,0,0c-0.1,0.2-0.1,0.4,0,0.5
		c0.1,0,0,0.2,0,0c-0.2,0.1-0.1,0.2,0,0.3c-0.5,0.6-0.2,1.5-0.5,2.4c0,0.5,0,0.9-0.3,1.2C112.2,59.1,112.2,58.9,112.1,58.9z
		 M112.9,56.2C112.9,56.1,113,56.1,112.9,56.2L112.9,56.2z M112.6,62.9c0.1,0,0.1,0,0.1,0.1C112.6,62.9,112.6,62.9,112.6,62.9z
		 M118.9,41.4c0,1.2-0.4,2.4-0.4,3.5c0,0.2-0.2,0.4-0.2,0.7c-0.1,0.5-0.1,1.3-0.2,1.8c-0.3,1.1-0.6,2.4-0.7,3.4
		c-0.6,2.3-1.1,4.8-1.7,7.7c-0.3,1-0.7,2-0.9,2.8c-0.1,0.1-0.4,0.5-0.3,0.6c-0.4,0.4-0.5,1-1.1,1.3c-0.2-0.2,0.1-0.3-0.2-0.3
		c0-0.1,0.2,0,0.2-0.1c0-0.6-0.1-1.2-0.1-1.7c0-0.1-0.2-0.1-0.2-0.2s0.1-0.1,0.2-0.1c0.1-0.3,0-0.5-0.1-0.7c0-0.1,0.1-0.1,0.1-0.1
		c0-0.1,0.1-0.4,0-0.7c0.1-0.1,0-0.8,0-1.1c0.2-0.3,0.3-1,0.3-1.3c-0.1-0.1-0.2-0.7,0.1-0.7c0-0.4,0.1-1.1,0-1.4
		c-0.1-0.1,0.1-0.2,0.1-0.3c-0.1,0-0.1-0.2-0.2-0.2c0.1-0.4,0.2-0.8,0-1.1c0.1,0,0.1,0,0.1,0c0-0.4,0.3-0.7,0.2-1.1
		c-0.2,0.1-0.2,0.5-0.2,0.7c-0.5,0-0.2,0.9-0.8,1c0.2-0.1,0.1-0.4,0.3-0.4c-0.2-0.1,0-0.3,0.1-0.4c-0.2-0.7,0.1-1.4,0.5-2
		c-0.2-0.1-0.1,0.1-0.2,0.1c0,0,0-0.1,0-0.1c0.1-0.1,0.1-0.3,0.2-0.5c0,0-0.1,0-0.1,0c0-0.1,0-0.3-0.1-0.4c0.4-0.7,0.4-1.1,0.6-1.9
		c-0.2,0-0.2,0.2-0.2,0.2c0,0,0,0,0-0.1c0,0,0,0,0,0c0,0,0,0,0,0c0-0.1,0-0.3,0.1-0.4c-0.3-0.6,0.4-1,0.4-1.5
		c-0.3-0.2,0.2-0.9,0.5-1.2c0.1-0.4,0.1-0.9,0.5-1.1c-0.1-0.1,0-0.3,0-0.4c0,0-0.1,0.1-0.1,0.1c0-0.2,0-0.4,0.1-0.6
		c-0.2,0.1-0.3,0.4-0.3,0.6c0.1-0.3,0.1,0,0.2,0c-0.1,0.1-0.1,0.3-0.3,0.4c0,0,0.1-0.2,0.1-0.3c0-0.1-0.2,0.1-0.2-0.1
		c-0.1,0.2-0.1,0.3-0.3,0.5c-0.1,0.3-0.2,0.9-0.4,1c0,0.7-0.5,1.3-0.5,2h-0.1c-0.1,0.3-0.1,0.5-0.2,0.9c0.2-0.1,0.2-0.3,0.2-0.4h0.1
		c0.1,0,0.1,0.2,0.1,0.3c-0.4,0.2-0.2,1-0.6,1.4h0.1c-0.2,0.2-0.2,0.2-0.2,0.5c0,0.1,0-0.1,0.1,0c0,0.3-0.3,0.3-0.3,0.6
		c0.3,0.5-0.3,0.6-0.3,0.9c-0.1,0-0.1,0-0.2-0.1c-0.2,0-0.1-0.1-0.1-0.3c0.3-0.1,0.4-0.2,0.5-0.5h0.1c-0.1-0.1,0.1-0.5-0.1-0.7
		c0-0.2,0-0.5,0.1-0.7h0.1c0.3-0.4,0.2-0.9,0.2-1.2c0.3-0.7,0.1-1.3,0.5-2c-0.2-0.5,0.3-1,0.3-1.7c0,0.1,0,0.1,0.1,0.1
		c0,0.1,0,0.1,0,0.1c0.1,0,0.2-0.2,0.3-0.2c0.2-0.5,0.5-1.2,0.7-1.8c0.5,0.1,0.2-0.9,0.7-0.9c0.1,0,0.2-0.2,0.1-0.3h0.1
		c0.2-0.2,0.2-0.3,0.2-0.6c0.2-0.8,0.9-1.3,1-2.2c0.1,0.1,0-0.1,0.1-0.1c-0.3-0.3,0.2-0.5,0.2-0.9c0.5-0.3,0.3-1,0.6-1.4
		c-0.1-0.2-0.2-0.3,0.1-0.8c-0.1,0-0.1,0-0.1,0c0-0.1,0.1-0.1,0.1-0.3c0.2,0,0.1,0.1,0.2,0.1c0-0.3-0.2-0.7,0.1-0.9
		c0.1,0-0.1,0.2,0.1,0.1c0,0.3-0.1,0.6,0,0.7c-0.1,0.3-0.1,0.8,0.1,1c0,0.8,0.2,1.8,0.3,2.4C118.9,39.4,119.2,40.4,118.9,41.4z
		 M113.3,53.9c0.1,0,0.1,0.2,0.1,0.2C113.3,54.2,113.2,53.9,113.3,53.9z M114.6,45.1c0-0.1,0.1-0.1,0.2-0.1v0.1
		C114.7,45.1,114.6,45.1,114.6,45.1z M119.2,46.1C119.3,46.1,119.2,46.1,119.2,46.1C119.1,46.2,119.2,46.1,119.2,46.1z M119.1,46.4
		C119.1,46.2,119.2,46.2,119.1,46.4L119.1,46.4z M119.2,47.7c-0.2-0.3,0.1-0.7-0.1-1.1c0-0.1,0.1,0,0.2,0c-0.1-0.1,0-0.1,0-0.3
		c0.2,0,0.1,0.1,0.2,0.1C119.3,46.9,119.4,47.2,119.2,47.7z M119.6,44.7c-0.1,0,0.1-0.2,0-0.2c0,0,0.1,0,0.2,0
		C119.8,44.6,119.7,44.7,119.6,44.7z M120,44.1c0-0.1,0.1-0.1,0.2-0.1C120.2,44.1,120.1,44.1,120,44.1z M120.3,43.7
		c-0.1-0.1-0.1,0.1-0.2,0.1c0-0.2,0.1-0.2,0.1-0.4C120.4,43.6,120.1,43.7,120.3,43.7z M136.4,40.2C136.5,40.1,136.5,40.1,136.4,40.2
		C136.5,40.1,136.5,40.2,136.4,40.2z M138.9,39.7C138.9,39.7,138.9,39.7,138.9,39.7C139,39.7,139,39.7,138.9,39.7z M139.2,39.7
		C139.3,39.9,139.1,40.1,139.2,39.7L139.2,39.7z M140.1,23.7c0-0.2,0-0.2,0.1-0.3C140.3,23.4,140.2,23.7,140.1,23.7z M141.9,26.9
		c0-0.1,0-0.2,0.1-0.3c0.1,0,0.1,0,0.2,0C142.1,26.7,142,26.8,141.9,26.9z M148.8,22.9C148.8,23.1,148.7,22.9,148.8,22.9
		C148.8,22.9,148.9,23.1,148.8,22.9z M173.7,29.2C173.7,29.4,173.5,29.2,173.7,29.2c0-0.1,0.1-0.2,0.2-0.3
		C174,29.1,173.8,29.2,173.7,29.2z"/>
	<path class="st0" d="M174.6,27.7c0.1-0.1,0.1-0.1,0.1-0.1C174.7,27.6,174.6,27.6,174.6,27.7C174.6,27.6,174.6,27.6,174.6,27.7
		C174.6,27.6,174.6,27.6,174.6,27.7z"/>
</g>
</svg>
